0	0	0	0
0	0	0	0
0	0	0	0
0	0	0	0
3	0	0	0
0	0	2	1
0	0	0	0
0	0	0	0
2	0	0	0
1	1	2	3
1	0	0	0
0	2	0	0
0	1	0	1
0	0	0	0
1	0	0	2
2	1	0	2
0	1	0	0
0	0	1	1
1	1	1	0
0	0	0	4
5	1	0	0
0	1	0	1
4	0	0	0
0	0	0	2
0	1	0	1
0	0	0	2
0	0	0	0
1	1	0	0
1	0	0	0
0	0	0	0
0	1	0	1
1	0	0	0
1	0	2	0
0	0	0	1
0	2	2	1
1	0	2	3
1	1	1	0
0	0	0	0
5	0	5	2
2	3	1	0
2	2	4	1
3	1	0	1
1	1	0	1
1	1	0	1
3	2	1	2
1	1	0	0
0	3	0	3
1	1	2	0
0	0	0	0
3	0	4	3
0	1	2	0
2	0	0	5
3	0	0	0
2	1	0	1
3	1	1	0
2	0	7	2
1	1	1	2
3	0	13	6
5	3	1	5
0	1	2	1
0	0	7	4
1	1	0	0
3	2	2	1
1	0	0	3
2	2	3	1
1	2	0	2
2	4	4	1
1	1	2	0
2	1	0	5
3	1	2	1
1	0	2	1
1	5	1	0
6	1	5	3
1	0	1	0
1	4	1	0
2	1	2	2
3	4	1	1
0	2	1	1
2	4	0	1
0	0	1	5
3	6	0	2
5	3	0	6
6	5	4	3
4	2	1	5
4	1	1	0
7	2	7	3
3	2	1	1
4	2	0	5
3	1	4	2
1	3	2	1
3	2	1	1
6	3	6	2
3	1	1	0
3	1	1	0
1	1	0	2
4	3	5	2
6	1	3	1
4	2	2	2
4	2	7	2
3	3	2	1
14	4	0	8
4	0	1	1
2	1	4	0
3	3	1	1
7	3	2	0
4	5	2	0
2	0	1	1
3	1	3	1
4	1	6	1
1	2	2	0
1	2	2	4
3	3	0	3
4	0	0	6
0	3	2	7
1	0	0	0
5	0	1	5
3	1	2	1
1	3	1	2
0	1	1	2
0	3	6	2
2	0	3	0
3	2	8	7
3	0	1	2
10	3	0	2
1	1	3	9
3	3	3	0
2	0	3	2
2	1	1	2
1	2	2	0
2	8	2	3
2	5	2	8
3	3	2	2
2	2	1	6
12	1	1	0
1	1	0	2
0	11	3	2
0	0	2	1
2	1	2	1
3	1	2	2
4	0	0	3
9	3	3	3
3	2	1	0
0	5	1	3
1	0	0	3
1	1	1	2
8	1	0	4
6	4	4	1
0	3	0	1
3	0	0	0
3	2	4	2
3	0	2	1
3	5	4	3
1	7	5	1
3	4	1	4
2	3	0	2
1	1	4	4
0	4	0	4
3	4	3	2
2	3	2	7
1	4	3	2
2	11	3	6
0	11	2	3
1	6	4	6
3	1	1	1
2	5	0	2
4	0	0	0
1	2	0	1
1	0	0	0
4	2	2	1
2	9	3	3
1	10	7	0
3	18	1	1
6	2	3	1
4	1	3	0
2	3	2	4
1	3	3	0
0	2	0	0
5	0	1	1
3	3	1	2
1	2	2	0
4	1	0	0
6	4	1	2
28	0	4	2
7	1	4	7
1	6	2	2
7	6	2	2
4	0	0	3
3	4	1	2
0	0	1	0
3	5	2	3
2	3	3	1
0	1	3	1
0	2	4	3
0	2	0	1
1	1	5	1
1	1	3	3
4	0	2	1
0	3	1	0
2	1	3	2
0	2	1	3
1	2	3	2
0	6	4	4
0	1	1	2
1	1	2	0
2	0	1	4
0	2	1	3
0	2	5	1
2	1	3	4
2	0	0	4
1	1	4	3
1	2	1	1
0	5	0	2
2	1	1	5
2	3	3	3
3	2	1	3
1	2	0	3
1	1	0	0
1	2	2	2
0	2	0	3
2	4	0	2
0	4	2	1
3	1	0	6
0	0	0	0
3	0	2	2
0	6	1	3
0	0	1	6
0	3	0	19
4	2	1	0
0	3	2	3
1	2	1	1
0	0	0	5
4	3	0	3
3	6	1	4
1	2	3	0
39	8	8	20
250	49	126	46
1016	172	227	1584
300	74	304	181
131	57	268	74
205	37	157	169
47	46	42	77
144	53	99	266
41	5	14	17
24	4	112	61
8	0	52	24
14	8	66	9
39	17	78	54
60	3	150	42
53	14	231	59
56	8	157	115
