0	0	0	0
0	0	0	0
0	0	0	2
4	2	2	3
1	0	1	2
0	0	1	2
0	0	1	0
1	0	1	1
0	2	1	6
0	0	2	1
0	0	1	0
0	1	1	0
0	0	4	0
0	0	2	2
0	1	0	0
0	0	1	1
2	2	2	2
1	0	1	1
2	0	0	1
0	4	4	1
0	0	0	0
1	1	2	2
3	0	1	1
2	1	1	2
1	1	4	2
0	0	3	3
3	0	0	1
2	0	3	3
3	1	1	3
0	3	2	2
1	1	2	0
6	1	2	1
1	2	2	4
0	0	1	0
0	0	1	1
0	2	0	1
1	1	2	2
0	2	0	0
2	3	0	1
3	4	7	1
1	1	1	2
1	2	1	1
2	0	4	4
1	2	3	5
1	2	3	2
1	4	1	0
1	0	0	2
1	2	3	1
1	1	4	5
7	1	8	3
3	2	2	5
4	1	2	1
3	7	6	2
2	4	2	3
7	9	17	12
1	2	5	3
10	0	12	8
2	1	1	4
1	0	2	2
1	2	1	2
3	1	1	3
1	0	1	0
6	3	8	9
0	5	3	4
2	1	1	1
4	1	2	5
2	1	1	1
4	2	3	5
0	0	4	1
8	2	7	4
2	0	4	5
5	5	9	3
4	2	0	2
0	0	6	2
9	6	7	3
3	3	3	2
4	7	9	8
1	2	2	7
4	3	8	6
3	0	2	4
6	5	14	7
0	0	7	4
2	3	2	3
1	3	3	4
2	4	8	9
2	2	2	2
5	3	10	9
4	4	7	4
3	1	12	9
5	1	5	2
20	8	26	35
1	2	4	6
1	1	0	1
2	2	3	1
0	0	1	1
1	2	3	2
4	2	2	7
2	0	4	1
5	1	1	5
1	1	4	3
3	2	2	2
13	24	34	28
2	2	5	1
1	5	1	0
2	3	5	6
3	0	2	5
3	1	3	4
2	2	4	3
3	0	1	0
4	2	1	1
5	2	6	5
4	8	5	9
5	1	2	3
1	1	6	0
0	1	3	4
2	1	7	7
5	2	7	1
2	0	2	1
8	0	7	2
1	2	2	4
5	3	5	3
4	1	6	3
6	2	8	2
4	1	2	3
6	2	6	5
4	4	5	6
5	3	4	1
3	2	8	6
4	3	5	3
4	2	2	2
3	5	10	3
8	6	16	19
6	1	8	4
2	4	11	4
3	2	6	4
1	3	5	1
3	1	2	5
3	5	9	7
5	3	8	2
7	1	2	0
8	2	9	16
7	1	2	2
2	2	3	2
3	3	4	3
1	1	1	1
4	3	1	3
4	3	3	3
10	5	13	11
6	0	6	5
7	7	10	5
4	8	6	4
6	0	2	5
3	0	6	2
5	3	14	5
0	0	3	1
1	1	3	3
3	12	9	8
6	4	7	6
3	1	5	6
1	6	1	6
2	4	8	13
5	4	4	6
5	7	9	9
3	6	4	3
6	2	0	2
5	4	4	5
4	3	4	5
5	6	7	3
6	4	8	3
2	3	6	2
4	2	6	7
3	3	4	7
2	1	7	7
2	0	5	5
0	2	4	3
4	6	2	5
10	2	13	12
3	4	4	7
7	6	9	12
4	1	3	2
6	0	5	7
3	5	8	4
2	7	4	1
2	1	4	3
3	1	5	5
1	4	6	1
2	9	7	4
9	5	5	3
4	5	3	2
5	2	5	2
1	6	5	3
3	0	2	2
4	2	0	7
6	3	3	7
3	4	6	6
3	6	6	2
1	5	8	7
3	4	3	0
6	4	3	5
3	5	6	11
2	5	7	3
2	4	3	2
4	2	4	6
7	1	3	3
3	4	1	4
4	2	6	5
1	5	8	6
6	7	4	6
6	3	7	9
1	8	8	9
5	9	8	4
6	3	5	11
3	2	3	4
7	10	6	4
7	2	7	7
3	2	8	7
4	4	3	0
5	7	13	6
7	7	10	11
2	5	16	3
5	13	10	8
6	3	12	11
3	2	7	4
5	5	8	6
5	4	7	13
5	7	4	5
3	6	6	12
6	4	11	6
5	2	4	6
4	4	4	3
5	4	4	5
4	4	8	5
2	6	6	6
4	2	2	5
6	5	8	2
4	1	4	5
4	4	6	3
4	4	8	2
2	1	2	3
2	2	2	2
2	2	1	4
2	2	3	1
3	5	4	4
6	10	5	11
4	5	8	5
6	5	20	7
12	8	20	11
6	7	9	4
0	0	0	0
0	0	0	0
