0	0	0	0
1	2	0	0
0	0	1	0
0	0	0	0
0	12	0	0
0	2	4	0
1	0	2	0
0	0	0	1
0	0	0	0
0	0	0	0
0	0	0	0
0	0	0	0
0	0	0	0
0	0	0	0
0	0	0	0
0	0	0	0
0	0	0	0
0	0	0	0
0	0	0	0
0	0	0	0
0	0	0	0
0	0	0	0
0	0	0	0
0	0	0	0
0	0	0	0
0	0	0	0
0	0	0	0
0	0	0	0
0	0	1	0
0	1	0	0
0	0	2	0
1	0	0	0
1	0	0	0
0	0	2	0
0	0	1	0
0	0	0	0
0	0	2	0
0	0	2	0
1	0	1	1
1	0	2	0
0	0	3	0
1	0	1	0
1	0	0	0
0	0	0	0
0	0	3	0
0	0	0	0
0	0	1	0
0	0	1	0
0	0	0	1
0	0	0	0
0	0	1	0
0	0	1	0
1	0	0	0
0	0	0	1
0	1	1	0
2	0	1	0
1	0	1	0
0	0	3	0
0	0	0	0
0	0	1	1
0	0	1	0
0	0	4	0
1	1	2	0
0	0	2	1
0	0	1	0
0	0	1	0
2	0	2	3
1	0	1	1
0	0	3	2
0	1	4	0
1	1	0	1
0	0	1	0
0	0	0	0
0	0	0	0
1	0	2	1
0	0	0	0
0	0	1	0
0	1	0	0
0	0	1	0
0	1	1	0
0	0	0	1
0	0	1	1
1	0	1	0
0	0	1	1
2	1	3	0
0	0	3	4
0	0	1	1
0	0	1	1
0	1	1	0
0	1	0	2
0	0	3	0
1	0	5	1
1	0	0	0
0	0	1	2
1	0	2	0
1	0	1	1
1	0	2	0
1	0	1	0
0	0	2	1
1	2	1	0
0	1	2	0
1	0	0	0
0	0	1	1
0	0	0	0
0	0	1	0
0	0	0	2
0	0	2	0
0	0	1	0
0	0	4	1
1	0	2	0
0	0	2	0
0	1	0	1
0	1	2	1
0	1	0	1
1	0	0	1
0	0	1	1
0	0	0	0
0	0	4	0
0	0	0	0
0	0	0	0
1	0	0	0
1	0	0	2
0	0	1	0
0	0	0	0
0	0	1	1
0	0	2	0
0	0	0	1
0	0	1	0
0	0	2	0
0	1	0	1
0	0	0	0
0	0	0	1
0	0	1	0
0	0	1	1
0	0	1	0
0	2	0	0
0	0	1	1
0	0	1	0
1	0	2	1
0	0	0	2
0	1	0	0
2	0	1	1
0	1	0	0
0	0	0	2
0	0	0	0
1	0	0	1
1	0	0	0
0	0	0	0
0	0	0	3
0	1	0	0
0	1	1	1
0	0	1	1
0	1	2	1
0	0	0	1
0	2	1	1
0	1	0	2
0	1	1	0
0	0	1	1
1	0	1	0
0	1	0	0
0	1	0	0
0	2	1	0
0	0	0	4
0	0	0	0
0	0	0	1
0	0	0	1
1	0	0	1
0	0	0	0
0	0	0	0
0	2	3	0
0	0	0	0
0	0	5	0
0	0	1	0
0	1	2	0
1	0	0	2
0	0	1	0
0	2	2	3
1	0	0	1
0	1	2	0
0	1	2	7
0	0	0	1
0	1	1	2
0	1	2	0
1	0	0	1
3	1	1	3
2	0	0	0
0	0	1	3
0	1	2	0
1	1	0	0
1	0	1	0
1	2	0	0
0	0	1	1
0	0	0	0
0	0	0	0
1	0	1	0
0	0	0	2
1	0	2	0
0	0	0	0
0	0	0	0
0	0	0	0
1	0	0	0
0	0	2	0
0	0	2	4
0	1	0	2
1	0	0	4
0	0	0	0
0	0	1	0
1	1	0	0
1	0	0	1
1	0	0	3
2	2	0	1
1	0	1	5
0	0	1	0
0	0	0	0
0	0	0	0
1	0	0	1
1	0	0	0
1	0	0	3
0	1	2	1
0	0	0	7
0	1	0	1
0	0	0	1
0	1	0	0
0	0	0	2
0	0	0	1
0	0	0	2
0	1	0	1
0	1	0	0
0	1	0	12
0	0	0	1
0	0	0	2
0	0	1	6
1	0	0	7
2	3	3	26
3	15	4	38
6	290	22	192
8	317	129	162
18	275	90	339
11	402	123	269
14	1179	199	379
21	927	167	923
7	1506	222	343
77	600	40	1110
57	486	50	410
68	652	35	384
132	406	2	197
256	418	8	27
236	227	1	47
144	95	0	39
90	11	0	23
