0	337	143	397	
0	54	90	24	
0	20	10	22	
0	102	122	252	
0	0	0	0	
0	0	0	0	
0	3	0	0	
0	0	0	0	
0	0	0	6	
0	0	0	3	
0	0	0	0	
0	0	0	0	
0	0	0	1	
0	0	0	77	
0	0	0	0	
0	0	0	0	
0	0	0	0	
0	0	0	0	
0	0	0	0	
0	0	0	0	
0	1	0	0	
0	0	0	0	
0	0	2	0	
0	1	0	3	
0	0	0	0	
0	32	0	0	
0	0	0	0	
0	0	0	0	
0	0	0	0	
0	1	0	0	
0	0	0	0	
0	0	0	0	
0	0	0	0	
0	0	0	0	
0	0	0	0	
0	0	0	0	
0	0	1	1	
0	1	1	4	
0	0	0	0	
0	0	0	0	
0	0	0	0	
0	0	0	0	
0	0	0	0	
0	0	0	0	
0	0	0	0	
0	0	0	0	
0	0	0	0	
0	0	0	1	
0	0	0	1	
0	2	1	2	
0	1	0	3	
0	0	1	0	
0	0	0	0	
0	0	1	1	
0	0	0	0	
0	0	0	0	
0	0	0	0	
0	0	0	0	
0	0	0	0	
0	0	0	0	
0	0	0	0	
0	0	0	0	
0	0	1	0	
0	20	32	43	
0	0	0	1	
0	0	0	0	
0	0	0	0	
0	0	0	0	
0	0	0	1	
0	0	0	0	
0	0	0	1	
0	0	0	0	
0	0	0	0	
0	0	0	2	
0	0	0	0	
0	0	0	0	
0	0	0	0	
0	0	0	0	
0	0	0	0	
0	0	0	0	
0	0	0	0	
0	0	0	0	
0	0	0	1	
0	0	0	0	
0	0	0	0	
0	0	0	0	
0	0	0	0	
0	0	0	0	
0	0	1	0	
0	0	0	0	
0	0	5	0	
0	0	0	0	
0	0	0	2	
0	0	0	0	
0	0	0	0	
0	0	0	0	
0	0	0	0	
0	0	0	1	
0	0	0	2	
0	13	5	11	
0	0	0	0	
0	0	0	0	
0	0	0	0	
0	0	0	1	
0	1	1	1	
0	0	0	0	
0	0	0	0	
0	0	1	0	
0	0	0	0	
0	0	0	0	
0	0	0	0	
0	0	3	2	
0	3	0	4	
0	0	0	0	
0	0	0	0	
0	0	0	0	
0	0	0	0	
0	0	0	1	
0	2	9	5	
0	0	1	2	
0	0	0	4	
0	0	0	1	
0	1	0	0	
0	0	0	0	
0	0	0	2	
0	0	0	3	
0	1	0	0	
0	0	0	0	
0	0	0	0	
0	1	4	1	
0	2	1	0	
0	1	0	1	
0	2	1	1	
0	0	0	0	
0	0	0	0	
0	0	0	0	
0	0	0	0	
0	0	0	0	
0	0	0	1	
0	0	2	0	
0	0	0	0	
0	0	0	0	
0	0	0	0	
0	0	0	0	
0	0	0	0	
0	1	0	1	
0	1	0	0	
0	0	0	0	
0	0	0	0	
0	0	0	0	
0	0	0	1	
0	0	0	0	
0	0	0	1	
0	2	1	1	
0	0	0	0	
0	0	3	2	
0	0	0	0	
0	0	0	0	
0	0	0	1	
0	0	1	0	
0	0	1	1	
0	0	2	0	
0	0	0	0	
0	0	1	0	
0	0	0	1	
0	1	1	0	
0	0	0	1	
0	0	0	0	
0	0	0	0	
0	0	0	0	
0	0	0	0	
0	6	1	2	
0	0	0	0	
0	0	0	0	
0	1	0	0	
0	0	0	0	
0	0	0	1	
0	1	0	1	
0	0	0	0	
0	0	0	0	
0	0	0	0	
0	0	0	0	
0	0	0	0	
0	0	0	1	
0	1	1	1	
0	1	3	2	
0	0	1	3	
0	0	0	0	
0	0	0	0	
0	0	0	0	
0	0	0	0	
0	0	0	0	
0	1	2	1	
0	0	1	0	
0	0	0	4	
0	0	0	0	
0	1	1	2	
0	0	0	0	
0	0	0	0	
0	2	1	0	
0	0	0	0	
0	0	0	2	
0	2	1	4	
0	0	0	1	
0	0	1	0	
0	0	7	1	
0	0	1	3	
0	0	0	0	
0	1	1	3	
0	0	0	0	
0	0	0	0	
0	0	0	4	
0	1	1	0	
0	0	0	0	
0	0	0	0	
0	0	0	0	
0	0	0	0	
0	0	1	0	
0	2	2	4	
0	3	0	3	
0	1	0	0	
0	0	0	0	
0	0	0	0	
0	0	1	1	
0	0	0	0	
0	0	0	0	
0	0	0	0	
0	0	0	1	
0	1	2	2	
0	0	1	0	
0	0	37	0	
0	1	0	0	
0	0	0	0	
0	2	11	3	
0	0	0	3	
0	1	0	9	
0	1	4	4	
0	2	2	5	
0	2	1	4	
0	5	0	6	
0	0	0	0	
0	0	0	0	
0	0	0	1	
0	7	2	12	
0	0	0	0	
0	1	1	3	
0	0	0	0	
0	0	0	1	
0	0	0	1	
0	2	7	23	
4	0	17	44	
64	0	68	80	
500	0	423	463	
6	0	14	11	
33	0	8	83	
0	0	1	0	
0	0	0	0	
0	0	0	0	
0	0	5	0	
0	0	0	0	
0	0	0	0	
0	0	0	0	
0	0	0	0	
0	0	0	0	
0	0	0	0	
0	0	0	0	
0	0	0	0	
0	0	0	0	
0	0	0	0	
0	0	0	0	
0	0	0	0	
0	0	0	0	
0	0	0	0	
0	0	0	0	
0	0	0	0	
0	0	0	0	
0	0	0	0	
0	0	0	1	
0	0	0	0	
0	0	0	0	
0	0	0	0	
0	0	0	0	
0	0	0	1	
0	0	0	1	
0	0	0	1	
0	0	0	0	
0	0	0	0	
0	0	0	0	
0	0	0	0	
0	0	0	1	
0	0	0	0	
0	0	0	2	
0	0	0	2	
0	0	0	0	
0	0	0	4	
0	0	0	0	
0	0	0	0	
0	0	0	0	
0	0	0	0	
0	0	0	0	
0	0	0	1	
0	0	0	1	
0	0	0	2	
0	0	0	0	
0	0	0	0	
1	0	0	0	
0	0	0	0	
0	0	0	0	
0	0	0	0	
1	0	0	1	
0	0	0	0	
1	0	0	0	
0	0	0	0	
1	0	0	0	
0	0	0	0	
0	0	0	0	
0	0	0	0	
0	0	0	0	
0	0	1	1	
0	0	0	0	
0	0	0	7	
0	0	0	0	
0	0	3	4	
0	0	0	0	
0	0	0	1	
0	0	0	0	
0	0	0	3	
0	0	0	0	
0	0	0	0	
0	0	0	1	
1	0	0	0	
0	0	0	1	
0	0	0	0	
1	0	3	1	
1	0	2	0	
0	0	0	0	
0	0	0	0	
0	0	0	0	
0	0	1	3	
0	0	0	0	
0	0	0	0	
0	0	0	0	
0	0	1	1	
1	0	2	1	
0	0	0	0	
0	0	3	0	
0	0	0	0	
0	0	0	0	
0	0	0	0	
0	0	0	0	
1	0	0	0	
0	0	0	0	
0	0	1	6	
0	0	0	0	
0	0	0	0	
0	0	0	0	
0	0	2	1	
0	0	0	0	
0	0	0	0	
0	0	0	3	
0	0	0	0	
0	0	0	0	
1	0	0	0	
0	0	0	0	
0	0	0	1	
0	0	0	1	
1	0	2	3	
0	0	0	0	
1	0	5	1	
0	0	0	0	
0	0	0	0	
1	0	0	0	
0	0	2	3	
1	0	0	0	
0	0	0	0	
0	0	0	0	
2	0	3	2	
0	0	0	0	
0	0	0	0	
0	0	2	0	
0	0	0	0	
0	0	2	0	
0	0	0	0	
0	0	0	0	
0	0	0	1	
0	0	0	0	
0	0	0	1	
0	0	0	0	
1	0	0	0	
0	0	0	0	
0	0	0	1	
0	0	0	0	
0	0	0	0	
0	0	0	0	
0	0	0	0	
0	0	0	0	
0	0	0	0	
1	0	0	1	
0	0	0	0	
0	0	0	1	
0	0	0	1	
0	0	1	0	
0	0	0	0	
0	0	0	0	
0	0	0	0	
0	0	0	0	
0	0	0	0	
0	0	0	0	
0	0	1	1	
0	0	1	0	
0	0	0	0	
0	0	0	0	
0	0	9	4	
0	0	0	0	
1	0	0	0	
1	0	0	0	
0	0	2	0	
0	0	0	1	
1	0	0	1	
0	0	0	0	
0	0	0	0	
0	0	1	2	
0	0	0	0	
0	0	0	1	
1	0	4	2	
0	0	0	0	
0	0	1	1	
0	0	0	0	
0	0	0	0	
0	0	2	2	
0	0	0	0	
0	0	0	0	
0	0	0	1	
0	0	0	0	
0	0	0	0	
0	0	0	0	
0	0	0	0	
1	0	1	1	
0	0	0	1	
0	0	0	0	
0	0	0	0	
1	0	4	3	
0	0	0	0	
0	0	0	0	
0	0	0	0	
3	0	1	0	
0	0	0	0	
2	0	0	0	
0	0	0	0	
0	0	1	0	
0	0	0	0	
0	0	0	0	
0	0	0	0	
0	0	0	0	
0	0	0	0	
0	0	0	0	
0	0	0	0	
0	0	0	0	
1	0	0	0	
0	0	0	0	
0	0	0	0	
0	0	0	0	
0	0	1	0	
0	0	15	0	
0	0	0	0	
0	0	0	0	
0	0	0	0	
0	0	0	0	
0	0	0	0	
0	0	0	0	
0	0	0	0	
0	0	0	0	
0	0	0	0	
0	0	0	0	
0	0	0	0	
2	0	2	2	
0	0	2	2	
1	0	0	5	
0	0	0	1	
0	0	0	0	
1	0	0	5	
0	0	0	0	
0	0	0	0	
0	0	0	0	
0	0	0	0	
0	0	0	3	
0	0	1	1	
0	0	2	1	
2	0	2	1	
1	0	0	1	
0	0	0	0	
0	0	2	2	
0	0	0	0	
0	0	0	0	
0	0	0	0	
0	0	0	0	
0	0	0	1	
1	0	9	21	
0	0	0	0	
0	0	0	0	
20	20	0	7	
7	6	0	6	
5	0	0	1	
1	3	0	0	
14	24	0	29	
0	0	0	0	
0	0	0	0	
2	1	0	0	
0	0	0	0	
0	0	0	0	
0	0	0	0	
0	0	0	0	
0	0	0	0	
0	0	0	0	
2	0	0	0	
0	0	0	0	
0	0	0	0	
0	0	0	0	
0	0	0	0	
1	0	0	0	
0	1	0	0	
0	0	0	0	
1	0	0	0	
0	0	0	0	
0	0	0	0	
0	1	0	0	
0	0	0	0	
1	0	0	1	
1	0	0	0	
0	0	0	0	
0	0	0	0	
0	1	0	0	
2	0	0	0	
1	0	0	0	
2	0	0	0	
0	0	0	0	
33	0	0	0	
0	0	0	0	
0	0	0	0	
0	1	0	0	
2	0	0	1	
0	0	0	0	
0	0	0	0	
0	0	0	0	
0	0	0	0	
0	0	0	0	
0	0	0	0	
0	0	0	0	
0	0	0	0	
0	0	0	0	
0	0	0	0	
0	0	0	0	
1	0	0	0	
0	0	0	0	
0	0	0	0	
0	0	0	0	
1	0	0	1	
0	0	0	0	
1	0	0	0	
0	0	0	0	
2	1	0	0	
0	0	0	0	
0	0	0	0	
1	0	0	0	
0	0	0	0	
4	7	0	5	
0	0	0	0	
3	7	0	11	
0	0	0	0	
2	1	0	0	
2	1	0	1	
1	0	0	0	
0	0	0	0	
0	0	0	0	
0	12	0	0	
0	1	0	2	
0	0	0	0	
0	1	0	2	
2	0	0	1	
0	0	0	0	
0	0	0	0	
1	0	0	0	
1	2	0	0	
34	1	0	0	
0	0	0	0	
0	0	0	0	
0	0	0	0	
5	0	0	0	
0	0	0	0	
0	0	0	0	
0	0	0	0	
0	1	0	0	
1	3	0	0	
0	0	0	0	
1	0	0	0	
0	0	0	0	
1	0	0	0	
0	0	0	0	
0	0	0	0	
0	1	0	0	
0	0	0	0	
0	0	0	0	
0	5	0	3	
0	0	0	0	
2	3	0	1	
1	6	0	7	
0	6	0	4	
1	1	0	0	
0	0	0	0	
1	0	0	0	
0	0	0	0	
0	0	0	0	
0	0	0	0	
1	0	0	0	
0	0	0	0	
0	0	0	0	
2	9	0	0	
0	1	0	1	
11	22	0	9	
0	1	0	0	
0	2	0	0	
0	0	0	0	
0	2	0	0	
5	9	0	0	
0	3	0	2	
1	0	0	0	
0	0	0	2	
1	0	0	0	
0	0	0	0	
1	14	0	3	
1	0	0	0	
0	0	0	0	
0	0	0	0	
0	0	0	0	
0	0	0	0	
1	0	0	0	
0	1	0	0	
0	0	0	0	
0	0	0	0	
0	0	0	0	
0	0	0	0	
0	0	0	0	
0	0	0	0	
0	0	0	0	
2	2	0	0	
0	0	0	0	
0	0	0	0	
0	0	0	0	
1	0	0	0	
1	0	0	0	
0	1	0	0	
1	3	0	1	
0	0	0	0	
1	0	0	0	
1	2	0	0	
0	0	0	1	
0	0	0	0	
0	1	0	1	
0	0	0	0	
0	1	0	0	
0	0	0	0	
1	1	0	0	
0	0	0	0	
1	0	0	0	
0	3	0	0	
0	0	0	0	
0	0	0	0	
0	0	0	0	
0	0	0	0	
0	0	0	0	
0	0	0	0	
0	0	0	0	
1	1	0	0	
0	1	0	0	
0	0	0	0	
2	2	0	0	
0	0	0	0	
0	0	0	0	
0	0	0	0	
0	0	0	0	
0	1	0	0	
3	0	0	0	
0	1	0	0	
0	4	0	0	
0	0	0	0	
0	0	0	0	
0	0	0	0	
0	0	0	0	
0	2	0	0	
0	0	0	0	
1	0	0	1	
0	0	0	0	
1	0	0	0	
1	0	0	0	
0	0	0	0	
0	0	0	0	
0	0	0	0	
0	0	0	0	
0	3	0	0	
1	0	0	0	
1	2	0	0	
0	1	0	0	
0	0	0	0	
1	1	0	0	
0	1	0	0	
0	0	0	0	
0	0	0	0	
0	0	0	0	
0	0	0	0	
0	0	0	0	
0	0	0	0	
1	0	0	2	
1	1	0	0	
0	0	0	0	
1	1	0	0	
1	9	0	0	
0	0	0	0	
0	4	0	2	
0	0	0	0	
0	0	0	0	
2	2	0	2	
2	2	0	2	
0	0	0	0	
1	3	0	2	
3	0	0	2	
0	0	0	0	
0	0	0	0	
0	1	0	0	
0	1	0	0	
0	0	0	0	
0	1	0	0	
0	5	0	2	
1	2	0	0	
0	0	0	2	
0	0	0	0	
0	0	0	0	
0	3	0	2	
2	0	0	0	
0	2	0	0	
1	0	0	0	
0	0	0	1	
0	0	0	0	
0	20	0	4	
0	0	0	0	
0	0	0	0	
3	2	0	13	
0	1	0	0	
0	0	0	0	
1	19	0	0	
0	1	0	0	
65	44	92	0	
449	403	381	0	
29	22	96	0	
188	128	180	0	
273	289	92	0	
0	1	2	0	
0	4	3	0	
0	2	4	0	
1	155	231	0	
1	0	0	0	
0	0	0	0	
0	0	0	0	
0	2	0	0	
1	0	0	0	
0	0	0	0	
1	0	0	0	
0	0	0	0	
0	0	0	0	
0	0	1	0	
0	0	0	0	
0	0	0	0	
0	0	0	0	
0	0	0	0	
0	0	0	0	
0	0	0	0	
0	0	0	0	
0	0	0	0	
0	0	0	0	
0	0	0	0	
0	0	0	0	
0	1	0	0	
0	0	0	0	
0	0	0	0	
0	0	0	0	
0	1	0	0	
0	4	0	0	
0	0	0	0	
0	0	0	0	
1	0	0	0	
1	6	0	0	
0	0	0	0	
0	0	0	0	
0	0	0	0	
0	0	0	0	
0	0	0	0	
0	0	0	0	
1	1	0	0	
0	0	0	0	
0	0	0	0	
0	0	0	0	
0	0	0	0	
0	0	0	0	
0	0	0	0	
0	0	0	0	
1	1	0	0	
0	0	0	0	
0	0	0	0	
0	0	0	0	
0	0	0	0	
0	1	0	0	
0	0	0	0	
0	0	0	0	
0	0	0	0	
1	0	0	0	
0	0	0	0	
0	0	0	0	
0	3	0	0	
0	0	1	0	
0	1	0	0	
0	0	0	0	
0	9	0	0	
0	0	0	0	
2	0	0	0	
0	0	0	0	
0	0	0	0	
0	0	0	0	
1	3	1	0	
0	0	0	0	
0	0	0	0	
0	0	0	0	
0	0	0	0	
1	1	0	0	
0	0	0	0	
0	0	0	0	
0	0	0	0	
0	0	0	0	
0	0	0	0	
0	0	0	0	
0	0	1	0	
1	0	0	0	
0	0	0	0	
0	0	0	0	
0	0	0	0	
0	0	0	0	
0	0	0	0	
0	0	0	0	
0	0	0	0	
0	0	0	0	
0	0	0	0	
0	0	0	0	
0	0	0	0	
0	0	0	0	
3	8	3	0	
0	0	0	0	
1	2	0	0	
0	4	0	0	
1	1	0	0	
0	0	0	0	
0	1	0	0	
0	0	0	0	
0	2	0	0	
0	0	0	0	
0	0	0	0	
2	0	0	0	
0	0	0	0	
0	0	0	0	
0	0	0	0	
0	0	0	0	
0	0	2	0	
1	0	0	0	
0	0	1	0	
2	2	0	0	
0	0	11	0	
0	1	0	0	
5	10	6	0	
0	0	0	0	
0	0	0	0	
0	0	0	0	
0	0	0	0	
0	2	2	0	
0	0	0	0	
0	0	0	0	
0	0	0	0	
2	1	0	0	
0	0	0	0	
0	0	0	0	
0	1	0	0	
0	4	0	0	
0	1	0	0	
1	0	0	0	
0	0	0	0	
0	2	0	0	
0	0	0	0	
0	0	0	0	
0	0	0	0	
1	0	0	0	
0	0	0	0	
0	0	0	0	
0	1	0	0	
0	3	0	0	
0	1	0	0	
0	0	0	0	
1	0	0	0	
0	0	0	0	
0	0	0	0	
0	0	0	0	
0	0	0	0	
0	0	0	0	
0	1	0	0	
0	0	0	0	
0	0	0	0	
0	1	0	0	
0	4	0	0	
0	0	0	0	
0	0	0	0	
0	0	0	0	
1	0	0	0	
1	0	0	0	
0	0	0	0	
2	2	1	0	
2	1	0	0	
1	2	0	0	
0	0	0	0	
0	0	0	0	
0	0	0	0	
0	0	0	0	
0	0	0	0	
0	0	0	0	
0	0	0	0	
0	2	0	0	
1	0	0	0	
0	0	0	0	
0	0	0	0	
0	0	0	0	
0	0	0	0	
0	0	0	0	
0	0	0	0	
0	0	0	0	
0	0	0	0	
0	4	1	0	
0	0	0	0	
0	0	0	0	
0	0	0	0	
0	0	0	0	
0	0	0	0	
0	0	0	0	
0	0	0	0	
0	0	0	0	
1	2	0	0	
0	1	0	0	
0	0	0	0	
0	0	0	0	
0	0	0	0	
0	0	0	0	
0	0	0	0	
0	0	0	0	
0	0	0	0	
3	0	0	0	
0	0	0	0	
2	2	0	0	
0	1	1	0	
0	0	0	0	
1	0	0	0	
0	0	0	0	
0	0	0	0	
0	0	0	0	
0	10	2	0	
0	0	0	0	
0	0	0	0	
0	0	0	0	
0	0	0	0	
2	0	1	0	
1	5	0	0	
0	0	0	0	
0	1	0	0	
1	5	0	0	
0	2	0	0	
0	2	0	0	
0	1	0	0	
2	5	0	0	
0	0	0	0	
0	0	0	0	
0	0	0	0	
0	0	0	0	
3	2	4	0	
8	3	0	0	
0	0	0	0	
0	1	1	0	
0	0	0	0	
1	1	0	0	
6	2	0	0	
0	0	0	0	
0	0	0	0	
0	0	0	0	
11	4	0	0	
0	0	0	0	
2	5	3	0	
0	0	0	0	
0	2	0	0	
1	0	0	0	
