AAA	180	7	4	7	
AAC	8	9	6	2	
AAG	6	6	4	3	
AAT	7	4	1	6	
ACA	8	3	3	2	
ACC	2	19	2	7	
ACG	0	13	13	4	
ACT	2	3	4	1	
AGA	3	5	3	1	
AGC	2	6	5	4	
AGG	2	7	15	5	
AGT	1	2	0	1	
ATA	6	2	2	2	
ATC	3	9	7	6	
ATG	0	7	1	8	
ATT	1	3	6	10	
CAA	10	9	4	2	
CAC	3	13	8	1	
CAG	3	7	6	1	
CAT	1	10	6	1	
CCA	2	9	6	5	
CCC	9	36	11	11	
CCG	3	30	15	18	
CCT	1	14	8	13	
CGA	4	15	11	13	
CGC	7	73	51	8	
CGG	6	39	52	12	
CGT	14	10	21	6	
CTA	4	2	0	3	
CTC	4	12	5	9	
CTG	2	23	18	11	
CTT	7	17	25	10	
GAA	45	8	5	2	
GAC	4	7	13	3	
GAG	3	3	9	1	
GAT	2	6	5	6	
GCA	8	9	3	9	
GCC	11	34	21	20	
GCG	8	87	40	8	
GCT	3	13	13	33	
GGA	5	7	7	3	
GGC	6	30	63	23	
GGG	9	22	53	14	
GGT	3	6	12	8	
GTA	3	3	4	11	
GTC	3	9	4	15	
GTG	1	5	14	10	
GTT	3	4	10	15	
TAA	1	2	3	6	
TAC	2	4	10	3	
TAG	2	3	2	1	
TAT	0	1	2	7	
TCA	4	6	5	7	
TCC	0	9	11	5	
TCG	4	16	10	15	
TCT	3	8	19	12	
TGA	31	2	5	4	
TGC	4	14	9	26	
TGG	8	19	9	8	
TGT	3	8	7	8	
TTA	2	8	1	0	
TTC	3	6	3	29	
TTG	31	2	12	5	
TTT	2	4	7	25	
