AAA	44	30	44	17	
AAC	9	15	40	15	
AAG	4	5	8	9	
AAT	7	7	10	6	
ACA	14	35	31	25	
ACC	11	8	24	12	
ACG	8	39	19	23	
ACT	4	11	17	3	
AGA	5	2	3	4	
AGC	11	7	17	11	
AGG	12	9	8	4	
AGT	2	4	3	0	
ATA	3	5	5	2	
ATC	10	1	7	3	
ATG	3	6	6	4	
ATT	3	6	8	3	
CAA	14	23	17	6	
CAC	17	17	19	7	
CAG	10	26	17	11	
CAT	2	8	12	1	
CCA	21	26	19	13	
CCC	21	32	33	14	
CCG	33	35	36	29	
CCT	7	12	19	7	
CGA	16	12	13	9	
CGC	21	35	59	27	
CGG	27	38	28	32	
CGT	11	19	20	14	
CTA	1	1	1	3	
CTC	10	4	12	6	
CTG	10	12	19	6	
CTT	17	19	21	17	
GAA	22	18	12	20	
GAC	22	38	35	10	
GAG	4	7	1	5	
GAT	9	6	9	3	
GCA	9	18	17	12	
GCC	27	51	51	25	
GCG	28	46	41	34	
GCT	12	12	27	6	
GGA	45	20	47	13	
GGC	22	18	49	21	
GGG	13	19	24	16	
GGT	8	13	27	17	
GTA	6	0	0	4	
GTC	34	26	41	14	
GTG	7	19	12	12	
GTT	7	14	12	11	
TAA	11	2	0	0	
TAC	3	3	7	0	
TAG	0	1	1	0	
TAT	2	6	7	4	
TCA	9	3	4	1	
TCC	11	9	19	10	
TCG	14	18	9	8	
TCT	1	10	6	11	
TGA	12	10	6	5	
TGC	25	32	46	20	
TGG	15	13	19	5	
TGT	4	8	6	7	
TTA	1	1	1	0	
TTC	28	36	48	16	
TTG	19	31	11	10	
TTT	6	28	15	46	
