AAA	21	10	7	11	
AAC	3	3	1	2	
AAG	1	1	2	2	
AAT	7	5	3	0	
ACA	1	0	1	2	
ACC	3	0	5	8	
ACG	1	4	1	6	
ACT	6	3	2	9	
AGA	13	2	6	2	
AGC	2	4	3	4	
AGG	2	7	7	4	
AGT	5	2	2	0	
ATA	6	4	1	3	
ATC	1	1	1	2	
ATG	1	0	3	2	
ATT	6	2	2	2	
CAA	32	14	19	16	
CAC	9	13	6	6	
CAG	0	3	3	2	
CAT	4	4	4	3	
CCA	2	3	7	3	
CCC	22	18	7	20	
CCG	5	9	4	5	
CCT	2	1	1	2	
CGA	3	2	1	1	
CGC	5	4	4	1	
CGG	3	1	3	2	
CGT	2	8	8	7	
CTA	5	2	1	1	
CTC	1	2	1	4	
CTG	7	11	12	6	
CTT	1	2	1	8	
GAA	1	2	4	4	
GAC	4	4	5	1	
GAG	2	1	0	2	
GAT	3	6	8	1	
GCA	8	17	12	5	
GCC	6	7	3	5	
GCG	4	8	5	8	
GCT	1	3	1	0	
GGA	5	12	10	8	
GGC	4	2	5	5	
GGG	3	4	16	8	
GGT	5	0	3	2	
GTA	2	0	0	1	
GTC	2	3	2	3	
GTG	1	0	2	0	
GTT	4	8	1	10	
TAA	10	0	1	2	
TAC	0	3	3	0	
TAG	0	0	0	0	
TAT	1	0	1	0	
TCA	5	1	3	3	
TCC	18	14	17	9	
TCG	2	4	1	0	
TCT	2	1	8	1	
TGA	0	4	0	5	
TGC	5	2	5	3	
TGG	3	2	7	2	
TGT	4	2	2	0	
TTA	6	0	4	11	
TTC	6	7	6	4	
TTG	8	23	22	23	
TTT	6	6	9	34	
