AAA	108	71	112	163	
AAC	0	9	7	3	
AAG	66	3	68	2	
AAT	4	25	0	34	
ACA	4	13	16	13	
ACC	3	20	0	3	
ACG	10	11	41	11	
ACT	6	43	96	16	
AGA	2	2	3	73	
AGC	29	5	256	3	
AGG	24	13	7	7	
AGT	2	1	12	6	
ATA	2	27	47	7	
ATC	3	1	12	2	
ATG	1	1	1	1	
ATT	48	9	2	9	
CAA	2	16	2	2	
CAC	1	12	5	10	
CAG	1	1	8	1	
CAT	2	1	5	0	
CCA	0	1	5	0	
CCC	35	65	52	32	
CCG	207	63	59	30	
CCT	64	237	105	34	
CGA	1	2	5	0	
CGC	5	75	34	60	
CGG	168	61	54	69	
CGT	39	2	7	2	
CTA	8	8	0	2	
CTC	64	82	88	7	
CTG	48	29	39	28	
CTT	32	1	65	22	
GAA	0	0	3	14	
GAC	129	2	177	1	
GAG	163	100	55	3	
GAT	802	1583	1	4	
GCA	2	3	5	4	
GCC	8	69	41	3	
GCG	9	3	8	23	
GCT	37	36	9	7	
GGA	34	35	7	0	
GGC	0	0	2	10	
GGG	44	1	42	17	
GGT	42	0	0	41	
GTA	22	27	16	11	
GTC	23	12	16	7	
GTG	62	7	2	6	
GTT	100	2	97	4	
TAA	2	0	4	5	
TAC	18	88	134	6	
TAG	19	9	4	14	
TAT	88	89	280	23	
TCA	14	0	0	0	
TCC	0	36	23	10	
TCG	11	0	12	1	
TCT	27	105	77	36	
TGA	1	4	8	3	
TGC	2	2	11	2	
TGG	83	5	9	4	
TGT	76	9	11	13	
TTA	77	77	178	29	
TTC	30	39	12	30	
TTG	5	0	6	0	
TTT	20	3	10	34	
