AAA	88	14	22	28	
AAC	12	5	8	6	
AAG	24	7	15	19	
AAT	28	5	6	16	
ACA	6	3	5	1	
ACC	5	6	5	10	
ACG	7	19	4	1	
ACT	7	6	4	8	
AGA	17	2	19	9	
AGC	8	9	16	6	
AGG	16	5	19	5	
AGT	6	3	6	12	
ATA	13	6	8	22	
ATC	6	2	4	10	
ATG	10	3	5	6	
ATT	20	6	4	26	
CAA	5	8	10	3	
CAC	6	8	5	13	
CAG	5	22	15	5	
CAT	13	10	1	10	
CCA	7	7	5	8	
CCC	3	26	7	7	
CCG	0	14	7	18	
CCT	11	12	4	4	
CGA	4	6	5	4	
CGC	2	14	8	2	
CGG	7	12	8	5	
CGT	5	5	6	4	
CTA	8	7	3	13	
CTC	3	13	2	11	
CTG	7	27	7	15	
CTT	7	20	12	13	
GAA	12	12	22	13	
GAC	3	8	1	4	
GAG	13	6	4	5	
GAT	4	4	11	5	
GCA	11	5	39	7	
GCC	14	16	13	8	
GCG	4	13	9	6	
GCT	5	4	7	19	
GGA	9	1	8	5	
GGC	8	15	18	8	
GGG	7	6	36	10	
GGT	5	3	12	4	
GTA	11	2	10	4	
GTC	9	5	4	3	
GTG	12	3	4	8	
GTT	4	6	15	12	
TAA	26	2	7	25	
TAC	7	1	10	11	
TAG	4	4	6	3	
TAT	7	4	9	32	
TCA	8	15	8	17	
TCC	4	7	4	7	
TCG	3	5	12	3	
TCT	4	4	14	9	
TGA	20	7	6	4	
TGC	4	11	8	11	
TGG	4	7	3	10	
TGT	14	9	8	8	
TTA	13	5	11	30	
TTC	12	5	4	16	
TTG	11	7	5	16	
TTT	30	18	8	107	
