6646	26882	55455	34294
12692	25164	9621	43949
11311	51931	39579	20383
7236	21829	20607	33644
4769	13060	6686	5635
14074	12288	25959	11955
17387	20309	25799	14325
22909	8338	62805	10049
9809	10073	38032	24395
11886	18057	64651	9547
30134	56147	59646	23465
6831	15705	25187	10053
2044	19395	2742	15163
10853	19439	11527	7096
4096	20776	8680	13024
11036	20364	18289	12056
21181	18861	16946	1207
2751	15551	16623	15640
9359	6454	37271	16292
2757	3746	4626	7199
6561	14486	22200	1883
7163	11088	26011	8086
24362	8275	50238	16994
6557	2939	27434	7268
56792	14352	20917	8166
13128	6136	15460	19095
44930	33722	34326	45174
59262	6025	27978	24530
5128	17832	15035	3467
24187	6698	9497	5556
31798	24881	62349	11912
10225	3858	22281	2556
66937	35854	33521	39492
11664	12286	32608	18773
23099	23506	64388	19740
27806	8615	14574	9495
24311	14034	26160	8581
12597	16266	20310	11946
48407	22122	60078	76542
10185	28042	23479	15253
66953	29723	49116	18164
30863	27247	91886	39892
48077	67772	56885	36067
21035	18539	67245	12396
33948	8027	69344	3975
6756	19796	8740	14959
41555	14861	51020	28318
19293	11593	19416	11872
28522	9863	17281	8324
3068	11880	18930	25737
38506	22267	29467	1362
1788	14715	6429	11339
22559	8958	14245	2233
10680	12703	27342	12204
10074	2499	22753	9931
1823	7843	17218	6347
42261	21195	22903	10098
17280	9912	36298	8416
39287	31019	57938	14794
28165	9987	19563	15197
22864	14347	4477	11490
6205	17000	15487	4411
19012	11401	18347	17806
12632	7279	6573	2798
