78029
75873
92721
65720
137998
136585
114202
133932
61318
95317
86252
88946
73822
72633
100569
101483
101654
100761
98719
99078
96414
94745
96639
96633
94021
97619
96952
94681
97555
97049
95425
97254
96779
94801
96884
96535
94796
97719
96428
95126
96506
96487
95059
97367
96356
94396
97527
96282
94951
97151
95794
94526
96841
96459
94706
97156
96945
94662
96836
95885
93922
96541
95433
93660
95603
95678
93784
96426
95301
95160
96796
96692
94547
97562
95607
94433
97312
95938
94506
97192
95350
93379
97254
94656
93449
96253
95393
93920
98272
95535
97030
97402
98677
96158
99389
98075
95816
99717
96837
91492
102862
47029
147268
113698
138936
133121
69744
86139
75796
80782
112416
86424
111127
96277
93602
79160
87119
97950
96719
93601
94943
95609
93645
95791
94571
93905
95002
93911
93041
93852
93766
92322
95035
94432
94068
95215
94659
92953
94131
94566
93084
95177
94803
93796
94814
94810
94005
94348
94317
93602
95159
94859
93724
95270
94697
93420
94765
94458
93946
94618
95437
93222
96105
95175
95170
95891
96372
94341
96046
97011
94290
95859
95882
93976
95031
96084
94115
96941
95047
94714
94396
95068
93364
94579
95243
94566
93823
94856
92384
94239
94948
92586
94058
91922
90607
91036
90025
90280
93280
92272
93665
90432
188301
80716
88418
66253
73443
143478
126603
114462
106100
84787
161423
101416
132325
100654
120302
117408
107552
109331
113981
111820
111593
114076
112511
112808
114981
111923
112445
114986
112766
112671
114329
112039
112233
114485
111918
112484
114802
113182
112955
114551
112921
112418
114357
112457
112278
114159
112676
112928
114392
112517
112992
113919
111771
112205
114509
111831
112071
113683
112219
112015
114231
111434
112244
113774
111126
111684
113100
110699
111213
113278
110973
110004
112533
110163
109816
112265
109645
109817
111949
109342
109393
113171
110071
110443
112483
109982
109920
111331
109204
111059
111510
110356
110328
111458
110230
110650
113185
110280
111190
113645
106225
100495
109934
119017
142945
69292
64047
86910
89664
165654
121334
79755
112365
111430
146965
113823
107844
106694
107043
107553
108013
110238
111388
108913
109842
110697
108958
110073
110894
109576
110368
111778
109526
110410
110500
109837
110176
111303
108822
109905
111093
109250
110146
110641
109216
110410
111294
109303
110327
110909
109027
110209
111685
109972
110493
111219
110102
110365
111445
110092
110396
112294
109581
110898
111244
111234
110120
112629
110683
110329
111126
110226
111276
112798
111098
112347
113041
109946
113046
112685
112924
114043
113940
111950
113512
113356
113796
113685
116219
112139
112312
112728
112038
112927
115631
113199
115104
114573
110577
113555
115052
114333
