0	5958	3376	85
0	159	70	16
0	640	326	18
0	1224	57	235
0	2765	16	24
0	185	118	72
0	15	20	2
0	8	5	1
0	9	6	1
0	2	6	0
0	8	1	5
0	1	4	1
0	1	2	4
0	1	15	0
0	1	5	0
0	1	10	0
0	1	11	8
0	0	10	5
0	1	3	1
0	1	9	1
0	5	8	5
0	2	10	4
0	3	2	3
0	2	0	2
0	1	8	2
0	4	7	0
0	1	2	1
0	1	5	0
0	0	8	0
0	6	2	1
0	1	6	0
0	0	4	1
0	0	5	0
0	0	6	1
0	0	1	1
0	1	3	0
0	0	2	1
0	1	2	1
0	0	4	0
0	1	5	1
0	1	5	0
0	2	5	0
0	2	3	0
0	2	5	2
0	3	6	0
0	1	7	1
0	5	4	0
0	0	2	0
0	0	4	1
0	1	4	1
0	1	8	1
0	1	8	0
0	1	6	0
0	2	14	0
0	1	67	3
0	4	10	5
0	1	704	126
0	0	1	1
0	3	2	4
0	0	4	1
0	2	5	3
0	1	1	0
0	1	4	2
0	0	3	1
0	0	4	5
0	0	4	3
0	1	3	12
0	1	5	2
0	0	4	0
0	1	3	1
0	1	6	4
0	2	5	0
0	0	5	6
0	1	4	2
0	0	7	7
0	0	2	2
0	0	2	9
0	1	8	4
0	1	6	1
0	3	5	2
0	1	3	3
0	1	2	1
0	1	2	4
0	0	8	4
0	0	13	7
0	0	1	2
0	2	9	3
0	0	2	1
0	3	3	1
0	2	3	2
0	0	3	7
0	0	34	7
0	1	9	14
0	1	12	12
0	0	7	10
0	1	2	10
0	2	13	6
0	1	6	1
0	0	2	8
0	2	3	3
0	2	4	6
0	4	8	16
0	2	13	9
0	0	5	1
0	0	4	15
0	3	8	8
0	1	5	7
0	1	5	8
0	2	5	12
0	3	5	11
0	1	11	12
0	0	9	18
0	0	3	8
0	1	7	43
0	1	8	61
0	2	11	69
0	0	10	28
0	0	1	17
0	0	6	17
0	3	10	32
0	1	8	19
0	0	6	20
0	3	10	110
0	1	9	20
0	1	5	20
0	0	4	7
0	0	6	3
0	2	1	5
0	0	3	5
0	2	3	7
0	2	3	23
0	2	7	71
0	1	4	126
0	0	4	107
0	3	5	49
0	1347	6	16
0	5	9	50
0	4	5	65
0	1	4	150
0	2	11	87
0	2	11	112
0	5	7	37
0	1	3	34
0	1	3	42
0	1	6	72
0	4	9	39
0	2	19	47
0	1	11	32
0	3	3	69
0	2	9	106
0	1	4	78
0	3	7	24
0	1	13	45
0	1	13	131
0	4	13	85
0	3	7	83
0	15	14	140
0	5	19	111
0	2	9	110
0	3	13	147
0	3	17	101
0	8	17	70
0	15	15	185
0	9	6	142
0	62	37	269
0	19	12	132
0	11	8	126
0	2	6	52
0	2	2	71
0	3	14	113
0	12	30	325
0	10	11	440
0	5	7	263
0	4	19	162
0	20	17	305
0	24	9	250
0	22	12	620
0	13	14	652
0	10	12	594
0	15	67	694
0	59	172	848
0	55	261	1631
0	45	45	1005
0	137	50	703
0	50	20	727
0	31	43	727
0	24	75	596
0	11	42	554
0	25	64	1043
0	22	60	668
0	15	74	795
0	24	40	412
0	49	155	290
0	13	134	227
0	73	105	562
0	201	56	311
0	420	27	256
0	73	32	420
0	96	127	843
0	8	60	309
0	19	96	1023
0	22	24	630
0	30	65	620
0	34	79	770
0	41	147	518
0	16	114	298
0	17	38	467
0	104	87	1299
0	204	54	728
0	88	163	302
0	64	220	737
0	64	156	887
0	148	137	931
0	96	393	747
0	76	212	1066
0	76	101	972
0	52	155	1936
0	79	258	2265
0	162	334	1525
0	251	540	3653
0	311	129	3188
0	121	164	1353
0	154	293	1413
0	134	895	2682
0	367	1189	2271
0	158	237	1165
0	348	792	3131
0	205	467	3882
0	183	412	4662
0	396	501	3766
0	681	233	1478
0	1854	341	2702
0	1075	655	3071
0	344	538	2444
0	551	2137	4585
0	538	1829	3513
0	810	1413	7844
0	910	341	6192
0	732	903	3701
0	931	758	2696
0	2088	2498	3177
0	2354	962	5433
0	1702	601	3138
0	1100	991	2989
0	4236	912	4606
0	3748	2085	5688
0	2334	1933	8132
0	2116	2997	6104
0	2561	2266	4264
0	2423	761	2984
3	0	25	5
9	0	7	13
6	0	13	7
13	0	7	41
14	0	8	9
1	0	20	2
3	0	66	4
8	0	1	0
7	0	4	6
4	0	0	8
0	0	2	6
5	0	2	9
2	0	1	5
4	0	145	12
3	0	1	3
1	0	64	8
2	0	117	12
2	0	85	4
5	0	33	7
4	0	15	5
1	0	17	8
2	0	3	7
2	0	3	7
1	0	0	6
1	0	30	5
11	0	23	10
12	0	6	13
3	0	5	9
2	0	21	6
1	0	1	4
3	0	44	10
4	0	14	9
2	0	18	4
2	0	17	2
11	0	3	9
4	0	1	6
5	0	0	3
5	0	4	4
13	0	40	7
4	0	6	0
16	0	39	10
6	0	0	5
2	0	0	8
2	0	0	6
7	0	6	12
2	0	23	8
3	0	29	5
2	0	3	5
2	0	25	4
3	0	0	5
3	0	0	4
4	0	1	6
3	0	2	5
2	0	23	5
1	0	2	9
1	0	0	6
4	0	2	8
2	0	1	6
4	0	0	6
1	0	2	7
2	0	1	7
1	0	1	7
4	0	0	6
3	0	10	9
1	0	39	11
5	0	17	7
1	0	0	5
7	0	2	6
3	0	2	7
0	0	0	8
3	0	26	8
1	0	1	7
1	0	1	3
2	0	1	5
4	0	1	4
7	0	24	23
7	0	4	8
3	0	53	13
4	0	34	12
2	0	0	11
1	0	4	10
2	0	14	10
4	0	36	12
2	0	16	8
6	0	39	8
2	0	1	3
3	0	0	1
1	0	0	4
1	0	0	3
7	0	1	8
1	0	5	8
4	0	36	9
1	0	27	9
8	0	26	9
1	0	9	7
4	0	3	10
0	0	0	12
6	0	0	7
4	0	1	14
3	0	1	11
2	0	5	12
3	0	24	13
11	0	42	17
18	0	65	10
8	0	3	7
2	0	7	8
5	0	4	8
3	0	0	2
3	0	3	7
3	0	12	3
4	0	31	7
1	0	15	11
3	0	69	18
4	0	9	4
6	0	11	9
2	0	4	10
0	0	1	20
4	0	0	13
10	0	10	8
7	0	19	6
5	0	20	6
3	0	4	10
14	0	18	44
2	0	20	27
0	0	3	5
5	0	2	10
2	0	1	9
10	0	2	10
5	0	1	17
1	0	2	5
14	0	13	28
4	0	19	21
7	0	16	32
4	0	2	19
8	0	1	189
4	0	3	1073
7	0	4	28
6	0	2	16
3	0	5	20
2	0	22	14
9	0	7	38
22	0	10	26
11	0	5	25
6	0	17	29
13	0	18	38
4	0	4	38
14	0	6	16
24	0	4	38
4	0	6	19
22	0	9	43
17	0	7	26
135	0	153	242
35	0	26	30
69	0	27	39
37	0	30	56
21	0	21	33
22	0	22	52
14	0	9	32
11	0	16	23
8	0	25	43
7	0	6	13
20	0	27	44
13	0	7	41
10	0	5	12
17	0	42	39
16	0	36	108
46	0	19	102
18	0	4	34
27	0	12	40
39	0	11	72
65	0	79	110
113	0	147	585
11	0	10	31
22	0	28	63
26	0	7	63
14	0	20	156
50	0	44	270
19	0	25	73
56	0	36	141
40	0	61	83
25	0	62	32
5	0	46	26
10	0	18	16
6	0	7	9
40	0	64	41
126	0	151	62
37	0	62	76
21	0	79	103
36	0	58	184
21	0	43	84
14	0	22	74
18	0	70	28
35	0	326	142
69	0	130	92
23	0	56	67
20	0	39	14
18	0	61	18
46	0	101	206
108	0	118	184
236	0	150	485
60	0	109	136
86	0	131	134
87	0	284	297
163	0	194	587
234	0	338	456
90	0	363	208
154	0	139	317
117	0	160	571
143	0	387	106
623	0	419	248
328	0	412	514
375	0	570	1253
465	0	426	1140
169	0	393	444
509	0	479	785
218	0	265	715
498	0	323	1259
180	0	841	1310
136	0	290	453
295	0	502	2184
248	0	287	1257
430	0	473	675
552	0	580	595
556	0	1102	2386
397	0	1033	1035
372	0	688	777
873	0	774	1796
459	0	846	1357
640	0	1110	1485
679	0	374	1128
729	0	491	267
465	0	348	237
603	0	593	476
1703	0	1424	1369
1181	0	1378	2380
667	0	1039	1472
787	0	875	2044
708	0	814	2236
859	0	932	1772
688	0	772	1203
584	0	914	1499
736	0	869	2365
2922	0	851	2342
1903	0	1453	2657
670	0	720	1510
1496	0	1970	5632
2969	0	2827	7112
1716	0	2784	4986
1872	0	2028	2834
1430	0	1088	2044
7	15	0	8
9	103	0	9
6	200	0	4
30	1996	0	82
44	984	0	18
4	2	0	24
2	3	0	0
4	2	0	2
3	1	0	1
4	3	0	2
9	3	0	3
7	3	0	1
3	2	0	1
8	1	0	1
1	4	0	0
4	9	0	1
6	1	0	2
4	5	0	2
2	1	0	2
7	3	0	1
8	0	0	0
3	0	0	0
2	0	0	2
4	4	0	0
8	1	0	0
6	2	0	0
8	1	0	0
5	0	0	0
3	3	0	0
9	3	0	1
5	2	0	0
14	3	0	3
6	1	0	0
4	2	0	0
1	2	0	0
2	2	0	0
6	1	0	0
7	3	0	0
5	3	0	0
9	2	0	1
8	0	0	1
4	0	0	0
8	6	0	0
4	2	0	0
4	1	0	1
2	1	0	1
2	0	0	0
5	1	0	2
8	2	0	0
4	0	0	2
5	1	0	2
0	0	0	0
5	3	0	0
5	2	0	0
2	3	0	0
5	1	0	0
1571	2	0	0
7	0	0	0
7	2	0	0
6	3	0	2
7	2	0	2
8	1	0	3
7	1	0	1
8	2	0	1
8	5	0	6
3	1	0	0
8	0	0	1
9	2	0	2
8	5	0	1
3	4	0	1
4	1	0	1
1	2	0	1
3	0	0	1
4	2	0	2
8	3	0	0
2	4	0	1
13	7	0	2
7	7	0	0
4	2	0	0
4	0	0	2
12	8	0	3
3	19	0	3
2	12	0	1
3	11	0	0
4	1	0	0
5	3	0	0
8	0	0	1
7	3	0	0
2	3	0	1
6	4	0	2
2	2	0	0
9	16	0	2
2	6	0	3
3	1	0	5
3	3	0	1
8	1	0	2
3	1	0	1
5	2	0	3
9	3	0	1
3	4	0	1
4	1	0	0
2	10	0	1
10	16	0	2
4	1	0	2
10	2	0	3
3	2	0	0
8	3	0	6
7	9	0	2
4	9	0	4
1	15	0	2
14	36	0	1
7	17	0	4
11	18	0	6
7	26	0	47
5	7	0	3
7	4	0	9
6	7	0	13
9	12	0	12
3	13	0	4
6	23	0	2
13	14	0	9
8	5	0	2
5	14	0	2
6	3	0	3
12	4	0	2
8	2	0	1
4	3	0	1
5	3	0	2
2	1	0	1
2	4	0	0
5	19	0	4
7	26	0	12
5	6	0	0
7	9	0	3
9	11	0	1
1	55	0	2
11	11	0	3
0	5	0	7
4	10	0	5
3	15	0	3
13	19	0	5
8	18	0	3
6	8	0	2
3	9	0	2
5	6	0	14
3	4	0	5
10	2	0	11
6	8	0	4
3	2	0	2
6	11	0	6
12	12	0	12
11	24	0	10
8	16	0	6
6	4	0	2
9	16	0	11
6	38	0	6
5	11	0	0
7	12	0	2
7	9	0	8
10	14	0	16
26	19	0	3
3	18	0	2
13	35	0	5
30	134	0	9
10	89	0	21
3	22	0	2
21	26	0	21
8	16	0	12
116	72	0	150
36	29	0	47
12	11	0	21
14	19	0	26
17	34	0	49
14	24	0	31
12	43	0	34
12	66	0	19
16	34	0	23
23	33	0	40
12	16	0	17
9	18	0	5
8	39	0	3
7	34	0	2
13	119	0	8
12	296	0	0
11	69	0	2
34	20	0	1
22	69	0	17
20	46	0	82
44	77	0	123
37	110	0	33
68	69	0	32
17	34	0	8
11	17	0	1
8	40	0	4
107	160	0	34
144	400	0	30
85	586	0	14
62	282	0	21
116	391	0	88
56	136	0	62
310	339	0	109
77	251	0	100
89	203	0	87
97	349	0	228
74	225	0	108
51	135	0	59
99	111	0	94
233	607	0	309
75	476	0	77
46	312	0	40
121	271	0	137
126	379	0	276
312	593	0	177
252	331	0	114
227	181	0	136
294	409	0	468
290	351	0	736
154	369	0	366
209	679	0	278
413	529	0	935
587	1334	0	1717
393	684	0	263
490	778	0	385
94	413	0	415
492	1125	0	386
938	1070	0	363
795	660	0	661
295	488	0	712
395	1834	0	1559
746	2324	0	2021
1296	4790	0	1003
579	2427	0	305
782	3034	0	943
1055	1694	0	1072
798	1678	0	2184
498	1951	0	988
774	1536	0	3644
1201	2514	0	8784
900	2446	0	1991
2069	2484	0	1718
643	2935	0	1523
3109	6128	0	4924
4608	4864	0	2872
4060	5484	0	3166
2397	7458	0	3589
1148	5051	0	2873
1862	4979	0	4043
2470	3508	0	3011
2292	7416	0	1960
4345	5479	0	2846
20	14	14	0
14	36	4	0
19	20	5	0
12	3	1	0
154	155	2	0
5	2	2	0
7	4	11	0
15	3	0	0
7	7	0	0
4	3	1	0
20	4	1	0
37	5	0	0
2	1	1	0
3	0	7	0
6	2	0	0
14	9	20	0
2	4	1	0
3	9	1	0
4	6	2	0
17	3	1	0
7	3	5	0
6	4	0	0
11	4	0	0
6	6	0	0
17	3	1	0
31	3	1	0
29	7	2	0
14	1	2	0
7	7	4	0
3	5	0	0
8	5	6	0
46	0	0	0
56	9	8	0
12	7	6	0
10	2	1	0
3	5	0	0
29	4	2	0
35	2	0	0
25	6	3	0
26	5	2	0
62	3	2	0
60	6	1	0
3	7	1	0
4	8	2	0
3	5	2	0
10	2	3	0
11	2	1	0
43	9	2	0
5	3	0	0
3	8	0	0
17	5	1	0
29	7	0	0
27	4	0	0
7	7	3	0
10	2	1	0
4	1	0	0
13	8	0	0
5	3	2	0
6	3	1	0
15	4	0	0
6	8	3	0
3	4	3	0
2	6	0	0
12	7	1	0
23	6	6	0
2	1	1	0
7	2	0	0
2	6	0	0
7	5	2	0
8	5	4	0
8	5	0	0
2	3	0	0
15	1	0	0
12	3	0	0
11	4	2	0
20	7	1	0
23	5	0	0
17	2	0	0
15	3	6	0
15	2	1	0
18	1	0	0
12	7	4	0
14	2	2	0
13	7	8	0
19	9	5	0
7	4	1	0
10	3	0	0
2	8	0	0
2	10	1	0
8	5	0	0
11	3	0	0
9	4	2	0
3	1	1	0
10	8	0	0
14	1	2	0
23	7	0	0
10	4	0	0
4	4	0	0
8	3	1	0
5	2	0	0
4	5	0	0
6	5	2	0
16	3	1	0
10	5	3	0
5	2	2	0
15	5	0	0
8	6	2	0
8	5	1	0
25	5	2	0
10	1	2	0
12	7	2	0
15	7	3	0
9	5	1	0
5	5	1	0
27	5	5	0
13	6	3	0
10	8	1	0
20	2	2	0
29	10	7	0
10	8	6	0
53	10	3	0
32	7	2	0
12	13	0	0
30	9	3	0
11	10	4	0
9	5	0	0
12	5	1	0
18	6	1	0
16	8	1	0
13	5	2	0
10	4	0	0
22	9	3	0
36	7	1	0
11	8	1	0
10	9	0	0
16	2996	0	0
5	8	0	0
5	5	2	0
16	3	2	0
24	10	0	0
21	4	1	0
19	7	2	0
15	7	4	0
30	4	7	0
20	8	0	0
28	5	1	0
14	9	5	0
14	1	2	0
21	5	4	0
29	10	4	0
38	8	3	0
29	9	7	0
83	15	1	0
25	10	1	0
35	5	0	0
12	6	2	0
27	9	4	0
27	10	4	0
39	8	1	0
21	9	2	0
105	11	9	0
57	12	5	0
72	18	7	0
38	16	6	0
16	16	3	0
18	17	6	0
55	19	5	0
104	15	9	0
137	20	5	0
71	14	10	0
56	8	8	0
22	5	0	0
50	7	6	0
119	37	24	0
122	42	10	0
47	41	4	0
66	44	6	0
63	36	12	0
52	20	4	0
58	12	6	0
86	21	40	0
74	35	54	0
103	25	25	0
108	201	20	0
61	51	10	0
101	17	6	0
115	12	11	0
115	47	12	0
77	20	8	0
141	42	28	0
70	23	11	0
192	43	59	0
193	49	97	0
120	32	73	0
172	76	25	0
169	306	32	0
223	729	22	0
156	120	22	0
416	183	82	0
786	59	40	0
523	74	24	0
532	73	49	0
554	79	29	0
233	41	39	0
742	328	146	0
660	125	114	0
970	128	60	0
319	155	37	0
751	731	99	0
818	908	158	0
644	197	62	0
825	232	150	0
1230	243	151	0
794	88	108	0
2111	265	166	0
842	122	62	0
2173	360	396	0
904	130	301	0
650	121	152	0
340	147	43	0
1076	541	122	0
1660	933	243	0
1175	346	187	0
805	312	174	0
930	460	486	0
2162	603	490	0
2030	1092	523	0
863	290	161	0
841	493	282	0
1038	442	160	0
2116	4511	413	0
1469	7961	490	0
1214	1162	464	0
1736	631	451	0
773	306	420	0
1672	603	612	0
2123	1010	568	0
1556	927	260	0
2806	911	509	0
3409	943	894	0
4225	2084	973	0
2076	1631	1017	0
3569	2230	1270	0
5438	2154	2098	0
3712	4034	1237	0
4847	3205	1982	0
2746	2477	1653	0
6343	4075	4241	0
4096	3858	2510	0
4600	5553	3623	0
