0	0	0	0
0	2	0	0
0	0	0	0
1	1	1	0
0	15	1	0
2	6	3	0
0	12	2	1
0	0	0	0
0	0	0	0
0	0	0	0
0	0	0	0
0	0	0	0
0	0	0	0
0	0	0	0
0	0	0	0
0	0	0	0
0	0	0	0
0	0	0	0
0	0	0	0
0	0	0	0
0	0	0	0
0	0	0	0
0	0	0	0
0	0	0	0
0	0	0	0
0	0	0	0
0	0	0	0
0	0	1	0
0	0	0	0
0	0	0	0
0	0	0	1
0	0	0	0
0	0	1	0
0	0	1	0
0	0	0	0
0	0	1	0
1	0	2	0
0	0	2	0
1	0	0	0
0	0	0	0
0	0	0	0
0	0	1	1
0	0	1	0
0	0	0	0
0	0	3	0
0	0	1	0
0	0	3	0
0	0	3	0
0	0	1	0
0	0	1	0
1	1	2	0
0	0	0	1
0	0	0	0
0	0	0	0
0	0	0	0
0	0	1	0
0	0	1	0
0	0	2	0
0	0	1	1
1	0	2	1
0	1	3	2
0	0	2	0
1	0	1	0
0	0	0	1
0	0	3	0
0	0	0	1
0	0	0	2
1	0	1	0
0	1	2	1
0	0	1	1
0	0	1	0
0	1	0	0
1	0	1	0
0	1	0	0
0	0	1	0
0	0	1	1
0	0	1	0
0	0	1	1
0	1	3	0
0	2	1	1
0	1	2	1
0	0	1	1
0	0	1	0
0	0	2	0
0	0	0	0
0	0	2	1
0	0	1	1
0	0	0	1
0	0	1	1
0	1	2	1
1	0	0	0
1	0	6	0
0	0	0	0
0	0	0	2
0	1	0	1
0	0	1	0
0	1	2	0
1	0	0	0
0	0	5	0
0	0	0	0
0	0	4	0
0	0	1	1
0	0	0	1
0	0	0	0
0	2	0	0
0	0	2	0
0	0	0	0
0	0	3	0
0	0	0	0
0	0	0	0
0	0	2	0
1	0	0	0
0	0	0	5
0	0	1	0
0	0	0	0
0	0	0	2
1	0	0	0
0	0	2	1
1	0	0	0
0	0	1	1
0	0	0	0
0	0	1	0
0	0	0	0
0	0	0	0
0	0	1	1
0	0	3	0
0	0	0	1
0	0	2	0
0	1	0	0
0	0	1	0
0	2	0	0
0	1	0	0
1	0	1	2
0	1	0	0
0	0	2	1
0	1	1	1
0	0	1	0
0	0	1	0
2	0	0	0
0	0	0	3
1	0	1	1
1	0	1	1
0	0	0	2
0	0	1	1
0	0	0	0
0	0	0	0
0	1	0	2
1	0	0	0
0	0	0	1
0	0	1	0
0	0	0	1
0	0	1	1
0	0	1	1
1	2	0	1
0	0	0	3
0	0	1	1
0	0	0	0
0	0	0	1
2	0	1	0
0	0	1	0
0	0	2	0
0	1	0	0
0	0	1	1
0	0	0	0
0	0	1	0
0	0	1	1
0	0	0	0
1	0	0	2
0	0	0	2
0	0	1	0
1	0	0	1
1	0	7	0
0	0	0	0
0	1	0	0
0	0	1	0
0	0	1	0
0	0	1	1
0	0	1	0
1	1	0	0
0	0	1	2
0	0	0	0
0	1	0	0
2	0	0	2
0	2	0	3
4	0	0	1
0	0	0	3
0	0	0	4
1	0	0	0
1	0	0	0
1	0	1	0
0	0	0	0
0	0	1	1
0	0	0	2
0	0	1	1
0	0	0	0
0	1	0	2
1	0	1	0
0	0	1	0
1	2	0	2
1	0	0	0
1	0	0	1
0	0	0	1
0	0	0	1
0	0	0	4
0	0	0	2
0	2	0	0
0	0	0	1
0	1	0	0
0	0	0	0
0	0	0	1
1	0	0	0
0	0	0	2
0	1	0	0
1	0	0	3
0	0	1	0
0	0	0	0
1	0	1	1
1	0	1	3
0	0	1	1
0	0	1	4
0	0	0	2
0	0	0	2
0	0	0	0
0	1	1	3
0	1	2	0
2	2	0	1
0	3	9	0
3	0	0	5
0	0	2	10
0	2	3	2
2	4	1	3
4	5	2	7
9	6	7	4
4	6	11	23
9	8	15	40
13	77	34	83
39	212	47	154
61	164	81	269
71	224	128	191
104	376	149	303
165	578	162	288
135	564	228	442
213	443	112	393
187	413	188	345
98	600	61	290
83	293	29	314
283	272	43	119
108	128	11	166
101	74	5	21
53	21	2	14
