0	13	29	81
0	11	8	18
0	3	6	7
0	3	12	7
0	14	6	18
0	2	5	7
0	3	11	22
0	8	15	32
0	4	11	18
0	10	9	22
0	12	14	16
0	10	16	18
0	4	14	19
0	4	7	17
0	5	18	28
0	8	21	19
0	7	15	27
0	5	11	20
0	5	14	49
0	16	17	28
0	7	17	33
0	19	19	28
0	9	14	28
0	14	18	35
0	23	14	24
0	9	19	28
0	9	10	27
0	5	33	22
0	12	17	23
0	20	22	21
0	8	29	12
0	11	17	37
0	20	21	24
0	10	29	27
0	16	28	48
0	13	17	26
0	18	15	36
0	12	21	40
0	9	26	34
0	16	19	37
0	12	26	35
0	10	16	34
0	9	26	27
0	10	17	35
0	16	25	26
0	13	28	32
0	15	24	27
0	8	34	54
0	10	34	38
0	9	25	36
0	8	19	56
0	9	30	40
0	19	31	56
0	17	23	39
0	12	37	48
0	16	37	46
0	15	40	70
0	23	32	43
0	16	47	59
0	16	38	47
0	18	48	60
0	11	36	65
0	20	39	63
0	15	39	64
0	15	35	54
0	28	34	56
0	10	36	46
0	11	37	55
0	13	59	59
0	16	46	61
0	13	41	54
0	20	43	70
0	17	32	56
0	12	55	60
0	14	40	59
0	9	57	58
0	13	47	68
0	20	47	62
0	11	37	87
0	23	45	63
0	20	76	76
0	21	55	83
0	21	52	73
0	25	47	65
0	19	64	76
0	25	68	72
0	22	59	74
0	25	74	84
0	29	62	88
0	30	57	91
0	19	59	84
0	23	61	104
0	36	85	111
0	24	79	84
0	25	77	84
0	22	101	110
0	31	80	100
0	21	51	90
0	20	50	74
0	26	65	85
0	32	58	64
0	21	57	89
0	20	68	85
0	27	66	96
0	28	67	88
0	30	69	91
0	30	52	97
0	13	62	95
0	28	61	84
0	30	75	101
0	32	63	115
0	23	75	111
0	27	64	93
0	23	79	126
0	30	98	111
0	24	85	108
0	24	77	110
0	36	84	127
0	34	81	138
0	25	88	116
0	21	77	119
0	31	75	126
0	29	82	103
0	31	85	147
0	33	104	128
0	43	120	146
0	27	107	156
0	24	92	148
0	25	96	162
0	29	83	145
0	44	91	192
0	29	100	150
0	27	97	160
0	29	114	181
0	25	104	172
0	31	114	172
0	35	115	173
0	32	137	195
0	29	113	191
0	31	107	181
0	31	144	190
0	23	138	203
0	32	111	207
0	32	126	186
0	23	125	197
0	38	143	234
0	26	149	209
0	35	159	229
0	38	151	215
0	33	148	237
0	51	164	210
0	55	176	236
0	24	153	252
0	43	173	248
0	35	158	262
0	35	169	266
0	42	178	270
0	33	176	297
0	29	192	305
0	35	174	325
0	35	187	304
0	36	167	331
0	40	217	353
0	38	208	336
0	36	192	321
0	47	210	383
0	52	246	337
0	51	205	331
0	39	192	399
0	42	222	383
0	34	244	347
0	47	242	418
0	41	255	408
0	64	244	471
0	51	243	390
0	51	253	442
0	57	272	486
0	42	272	474
0	50	307	519
0	63	263	486
0	60	292	500
0	64	294	531
0	55	311	499
0	50	319	511
0	55	310	559
0	73	296	550
0	68	341	625
0	72	336	592
0	50	345	573
0	78	337	661
0	66	420	656
0	70	358	673
0	57	367	692
0	63	415	747
0	87	384	707
0	70	385	690
0	76	453	742
0	73	399	748
0	70	400	770
0	90	449	831
0	62	439	800
0	85	455	829
0	80	436	876
0	86	465	899
0	81	502	859
0	81	502	948
0	89	479	902
0	91	513	1053
0	75	551	924
0	102	510	1011
0	101	545	1026
0	94	562	998
0	92	552	1068
0	115	552	1095
0	103	570	1117
0	98	591	1152
0	83	599	1095
0	98	597	1267
0	120	592	1148
0	115	644	1249
0	119	645	1233
0	129	666	1304
0	107	628	1239
0	144	717	1260
0	115	663	1325
0	141	645	1304
0	143	685	1340
0	154	708	1342
0	150	690	1430
0	151	772	1461
0	163	745	1399
0	167	721	1320
0	155	740	1433
0	174	766	1454
0	158	755	1432
0	167	757	1365
0	168	757	1441
0	174	750	1428
0	170	802	1546
0	185	807	1485
0	170	728	1369
0	187	701	1374
0	194	763	1358
0	195	779	1448
0	205	821	1508
0	180	612	1177
0	161	640	1258
0	175	769	1318
0	177	755	1371
0	183	744	1313
5	0	12	34
7	0	3	24
24	0	10	33
13	0	39	47
7	0	1	20
15	0	4	14
15	0	9	25
8	0	13	18
6	0	14	46
12	0	13	33
11	0	11	21
15	0	25	38
10	0	11	27
5	0	18	42
14	0	15	18
11	0	24	20
15	0	19	24
11	0	21	23
5	0	11	48
6	0	14	23
6	0	11	30
11	0	22	22
12	0	19	34
10	0	30	39
12	0	23	34
11	0	14	33
15	0	21	45
6	0	35	29
4	0	19	33
14	0	25	22
7	0	20	27
10	0	34	41
13	0	35	27
14	0	30	36
25	0	29	32
16	0	37	36
23	0	31	56
16	0	49	42
17	0	35	27
14	0	28	28
20	0	35	33
19	0	40	42
15	0	32	42
16	0	38	46
20	0	49	39
24	0	40	36
22	0	44	44
20	0	38	46
19	0	45	42
16	0	53	43
16	0	53	37
21	0	47	39
16	0	64	55
17	0	64	39
14	0	83	50
17	0	67	55
28	0	74	51
19	0	73	58
20	0	73	62
22	0	101	63
21	0	84	50
20	0	81	58
27	0	73	59
18	0	81	52
18	0	76	58
13	0	65	53
19	0	63	41
25	0	75	56
23	0	80	67
15	0	75	64
12	0	78	51
17	0	69	65
14	0	91	56
23	0	84	66
23	0	73	37
24	0	88	65
18	0	104	64
19	0	93	53
20	0	96	59
12	0	109	67
28	0	93	61
23	0	100	73
27	0	93	64
27	0	106	76
19	0	131	62
20	0	97	72
22	0	136	79
21	0	128	78
23	0	128	94
25	0	134	67
35	0	142	74
32	0	137	108
22	0	126	74
28	0	133	72
25	0	159	78
29	0	130	86
28	0	159	93
30	0	106	72
23	0	112	57
24	0	107	60
22	0	83	97
26	0	101	75
17	0	96	67
26	0	104	87
21	0	109	92
25	0	113	76
28	0	109	89
26	0	111	90
32	0	116	87
30	0	126	79
26	0	122	86
22	0	121	76
28	0	125	81
27	0	148	79
26	0	136	75
28	0	130	85
21	0	151	86
19	0	160	85
21	0	143	103
29	0	162	77
37	0	182	99
30	0	169	84
33	0	157	82
37	0	162	105
40	0	176	90
48	0	204	122
40	0	153	99
36	0	188	135
34	0	164	112
25	0	182	128
45	0	192	138
25	0	194	134
37	0	189	124
30	0	238	135
27	0	215	138
43	0	187	136
32	0	211	128
46	0	238	148
27	0	213	122
42	0	212	130
42	0	218	132
29	0	243	152
31	0	255	137
39	0	272	148
39	0	276	142
51	0	274	169
43	0	266	157
45	0	272	173
33	0	289	171
55	0	287	167
39	0	285	159
31	0	291	158
43	0	308	181
31	0	332	189
29	0	335	204
37	0	322	177
44	0	330	202
37	0	316	191
47	0	357	194
43	0	308	191
40	0	364	192
60	0	386	217
62	0	368	208
51	0	385	223
40	0	367	205
61	0	387	235
53	0	388	254
62	0	428	217
42	0	419	254
54	0	433	253
57	0	417	240
57	0	445	273
57	0	456	303
67	0	482	254
57	0	453	273
64	0	485	279
66	0	526	277
68	0	471	310
62	0	520	289
66	0	534	273
73	0	517	303
82	0	530	320
79	0	568	305
68	0	548	344
86	0	556	341
85	0	644	318
80	0	589	360
87	0	617	365
101	0	643	363
68	0	643	389
75	0	642	384
91	0	597	406
80	0	649	379
94	0	699	395
100	0	699	402
84	0	679	416
81	0	746	490
84	0	746	418
96	0	672	468
90	0	729	457
104	0	718	455
101	0	737	489
103	0	723	478
94	0	756	460
102	0	762	499
109	0	782	506
134	0	822	479
109	0	827	487
100	0	823	513
132	0	864	539
117	0	905	531
124	0	939	563
130	0	896	585
137	0	878	562
112	0	915	614
130	0	885	616
166	0	951	590
152	0	998	614
140	0	991	614
153	0	932	634
163	0	965	594
172	0	962	642
159	0	949	598
176	0	984	666
195	0	948	718
179	0	935	614
199	0	1048	645
205	0	1017	679
187	0	985	631
194	0	1055	712
233	0	1027	700
218	0	1024	700
207	0	1025	644
234	0	1078	630
213	0	1009	736
208	0	1024	685
193	0	1059	684
206	0	985	685
234	0	1063	696
219	0	1027	737
232	0	979	624
226	0	1050	641
232	0	1019	677
229	0	956	674
230	0	1099	688
213	0	898	539
203	0	935	593
234	0	986	618
210	0	1034	595
226	0	924	576
23	45	0	144
9	18	0	19
10	5	0	3
2	8	0	2
6	12	0	5
24	9	0	6
18	13	0	9
7	8	0	5
9	4	0	16
8	13	0	2
17	17	0	6
6	13	0	3
10	10	0	6
10	16	0	15
17	14	0	9
10	6	0	14
12	6	0	13
14	28	0	10
15	27	0	17
22	18	0	8
19	14	0	9
12	33	0	13
7	29	0	14
14	13	0	18
16	29	0	16
18	15	0	15
13	13	0	15
18	12	0	15
15	15	0	18
17	10	0	16
14	9	0	20
15	15	0	13
17	17	0	9
12	13	0	14
15	20	0	15
11	15	0	12
18	13	0	19
13	17	0	15
23	10	0	17
18	18	0	9
14	16	0	23
13	16	0	17
18	9	0	19
16	18	0	18
16	16	0	12
20	22	0	26
18	22	0	25
22	18	0	29
7	15	0	27
11	21	0	20
14	15	0	13
29	19	0	29
17	22	0	27
24	17	0	21
9	24	0	21
13	20	0	26
20	32	0	30
17	18	0	27
18	27	0	25
22	21	0	26
15	28	0	24
16	28	0	37
25	34	0	41
18	26	0	26
19	14	0	34
24	22	0	19
25	30	0	30
24	21	0	29
26	19	0	27
18	26	0	36
19	25	0	31
23	22	0	31
16	28	0	39
26	33	0	28
24	24	0	30
16	25	0	34
17	24	0	34
18	22	0	31
21	32	0	38
17	44	0	40
28	33	0	32
21	38	0	37
26	30	0	37
18	28	0	47
20	30	0	38
25	30	0	59
23	36	0	41
24	26	0	42
28	43	0	38
29	41	0	64
26	29	0	42
24	33	0	43
29	40	0	43
24	32	0	54
32	33	0	35
22	39	0	63
32	34	0	53
19	35	0	43
25	36	0	34
23	35	0	35
23	33	0	39
28	43	0	49
20	31	0	41
28	37	0	52
33	32	0	50
24	38	0	50
27	43	0	44
21	25	0	34
29	46	0	49
24	31	0	41
22	42	0	51
23	38	0	41
24	29	0	55
22	41	0	52
27	36	0	52
16	44	0	46
26	46	0	48
22	38	0	58
23	32	0	47
30	39	0	70
25	37	0	49
26	44	0	56
20	40	0	52
23	60	0	60
24	36	0	66
50	59	0	81
38	42	0	65
26	48	0	54
27	52	0	75
21	50	0	60
24	57	0	75
22	51	0	81
20	46	0	60
32	53	0	67
25	44	0	63
25	49	0	74
30	46	0	65
37	37	0	60
29	52	0	64
31	59	0	67
33	41	0	70
20	53	0	80
25	50	0	91
25	35	0	80
30	42	0	83
34	43	0	93
24	52	0	72
35	55	0	75
35	48	0	86
30	41	0	98
40	46	0	92
41	37	0	89
28	45	0	93
31	61	0	94
26	46	0	97
32	47	0	101
35	57	0	118
43	53	0	122
39	62	0	104
43	57	0	114
45	46	0	137
37	62	0	100
43	55	0	122
35	66	0	121
45	61	0	107
33	63	0	149
43	75	0	118
41	56	0	110
35	56	0	122
32	73	0	122
53	55	0	121
42	71	0	145
37	55	0	134
45	76	0	129
45	83	0	116
33	51	0	120
39	54	0	117
49	73	0	177
56	77	0	160
49	78	0	145
53	79	0	149
43	80	0	152
51	76	0	151
53	76	0	155
41	86	0	157
54	83	0	163
56	72	0	176
44	74	0	179
66	87	0	157
53	79	0	157
58	94	0	157
60	88	0	196
64	100	0	208
52	74	0	173
60	99	0	206
52	94	0	188
55	101	0	176
73	104	0	198
67	103	0	199
70	104	0	214
72	115	0	191
51	105	0	213
83	108	0	238
67	99	0	224
68	109	0	241
94	106	0	224
70	116	0	249
68	134	0	278
62	116	0	233
86	145	0	262
72	141	0	258
92	130	0	260
100	137	0	280
85	151	0	261
79	153	0	252
104	148	0	254
89	140	0	219
86	147	0	277
105	163	0	294
128	179	0	287
95	155	0	256
128	187	0	317
119	197	0	322
115	167	0	319
114	224	0	315
139	204	0	299
130	204	0	321
111	225	0	296
127	229	0	296
137	219	0	300
140	222	0	272
140	254	0	295
139	228	0	351
134	245	0	338
149	243	0	327
152	258	0	320
135	252	0	294
169	258	0	328
164	297	0	324
170	284	0	337
140	241	0	292
149	257	0	287
151	229	0	308
161	256	0	304
172	286	0	342
127	239	0	280
156	229	0	264
154	241	0	277
161	308	0	273
165	292	0	333
20	7	22	0
12	25	4	0
31	19	0	0
24	22	10	0
5	13	2	0
20	8	4	0
11	13	2	0
11	9	7	0
32	11	8	0
5	10	1	0
8	22	5	0
9	15	10	0
21	15	7	0
14	17	12	0
13	19	8	0
10	13	14	0
12	16	9	0
10	16	7	0
18	19	5	0
10	22	10	0
11	16	16	0
12	23	10	0
16	18	11	0
26	26	10	0
15	35	7	0
19	24	8	0
16	16	9	0
12	18	18	0
10	26	14	0
16	13	11	0
16	22	24	0
18	25	22	0
16	20	14	0
27	18	16	0
23	27	18	0
11	14	20	0
44	27	10	0
22	29	11	0
23	16	11	0
23	25	3	0
23	27	14	0
17	15	18	0
21	28	9	0
21	19	16	0
21	26	11	0
13	16	13	0
22	25	9	0
24	22	8	0
26	25	13	0
30	30	23	0
25	18	19	0
21	25	12	0
30	27	19	0
39	29	15	0
26	36	22	0
23	19	29	0
36	23	16	0
34	29	18	0
37	28	21	0
37	33	17	0
27	23	18	0
42	28	23	0
37	25	35	0
28	31	25	0
39	26	33	0
30	36	26	0
21	36	19	0
29	22	17	0
25	27	21	0
33	21	20	0
26	20	29	0
24	27	19	0
37	34	19	0
30	28	24	0
24	38	27	0
36	33	27	0
31	27	22	0
34	32	29	0
31	32	20	0
23	38	28	0
32	35	43	0
42	35	34	0
29	18	43	0
31	27	31	0
40	27	49	0
28	36	31	0
41	37	34	0
38	42	45	0
32	39	29	0
40	26	46	0
37	44	49	0
39	29	64	0
51	49	59	0
29	30	35	0
45	28	59	0
47	39	43	0
50	33	52	0
43	28	33	0
32	37	39	0
38	41	36	0
38	28	26	0
45	44	32	0
32	35	29	0
35	35	45	0
43	47	37	0
38	32	28	0
39	38	37	0
36	31	43	0
43	51	42	0
37	35	36	0
44	33	46	0
39	38	42	0
50	39	51	0
38	31	55	0
39	48	51	0
52	37	55	0
50	41	44	0
52	48	47	0
58	43	37	0
51	46	64	0
47	30	57	0
52	35	37	0
67	32	45	0
49	38	62	0
53	39	65	0
86	45	66	0
51	39	43	0
65	31	53	0
58	32	49	0
65	38	62	0
58	46	84	0
62	40	55	0
50	35	52	0
57	51	42	0
53	46	54	0
59	37	57	0
57	35	67	0
72	49	69	0
76	51	65	0
52	41	77	0
67	35	60	0
58	37	81	0
62	46	75	0
73	38	88	0
65	40	72	0
69	51	67	0
90	42	82	0
77	57	71	0
79	50	92	0
81	35	80	0
72	51	79	0
78	49	85	0
88	55	93	0
72	49	82	0
91	55	69	0
97	54	85	0
86	45	88	0
88	45	84	0
86	51	98	0
92	51	92	0
89	59	105	0
100	65	112	0
98	56	115	0
108	50	90	0
99	50	107	0
102	58	116	0
102	56	113	0
107	55	110	0
105	65	103	0
95	54	122	0
119	58	120	0
122	57	116	0
108	63	116	0
138	67	121	0
116	52	131	0
118	66	128	0
114	62	141	0
132	53	114	0
153	65	151	0
120	56	135	0
135	62	146	0
124	73	169	0
150	81	166	0
141	48	157	0
146	66	162	0
139	73	183	0
166	82	160	0
137	67	163	0
163	70	187	0
194	79	179	0
166	81	182	0
182	83	179	0
173	74	214	0
189	87	187	0
183	72	233	0
176	72	184	0
199	73	207	0
200	75	218	0
195	73	238	0
216	86	213	0
203	83	239	0
238	76	262	0
243	75	219	0
235	96	257	0
226	86	268	0
224	87	224	0
261	97	252	0
276	124	271	0
277	85	262	0
268	109	280	0
249	96	287	0
270	82	270	0
294	93	308	0
313	100	352	0
319	99	287	0
338	97	298	0
321	113	329	0
354	128	293	0
374	112	362	0
372	123	335	0
387	118	347	0
374	127	344	0
354	141	391	0
366	134	337	0
390	118	337	0
422	121	358	0
398	138	369	0
452	143	358	0
433	135	388	0
481	139	416	0
507	142	374	0
491	150	444	0
484	141	442	0
485	159	424	0
463	161	426	0
528	151	420	0
500	170	492	0
534	175	443	0
553	177	506	0
537	188	479	0
493	155	423	0
506	200	450	0
540	157	493	0
524	213	437	0
570	186	511	0
472	154	389	0
468	155	436	0
461	146	460	0
507	168	519	0
549	193	557	0
