0	0	6	1
0	7	6	17
0	0	0	2
0	0	1	0
0	7	4	11
0	1	0	1
0	638	8	414
0	18	8765	6409
0	0	9	3
0	0	0	0
0	0	0	0
0	0	0	0
0	4	1	7
0	0	0	0
0	0	0	0
0	0	1	0
0	1	8	6
0	1	6	5
0	0	0	0
0	0	0	0
0	0	0	0
0	0	0	0
0	0	0	0
0	0	0	0
0	0	0	0
0	0	0	0
0	0	0	0
0	0	0	5
0	0	0	0
0	0	0	0
0	0	0	0
0	0	0	0
0	0	0	0
0	5	4	2
0	0	0	3
0	0	0	0
0	0	0	0
0	0	0	0
0	0	0	0
0	0	0	0
0	0	0	0
0	0	0	0
0	6	3	2
0	2	1	2
0	0	0	0
0	2	2	3
0	0	0	0
0	0	0	0
0	10	19	32
0	0	1	0
0	0	0	0
0	0	0	0
0	0	0	0
0	0	0	0
0	8	7	12
0	1	0	1
0	2	0	1
0	2	1	1
0	0	2	0
0	0	2	3
0	2	1	5
0	2	0	3
0	1	1	6
0	0	0	1
0	0	0	0
0	1	6	4
0	0	0	0
0	2	1	5
0	1	5	5
0	0	1	2
0	1	0	2
0	0	0	0
0	0	0	0
0	0	0	0
0	0	0	0
0	0	0	0
0	0	0	0
0	0	0	0
0	0	0	0
0	0	0	0
0	0	0	0
0	2	2	0
0	10	6	10
0	0	0	0
0	1	1	0
0	0	0	3
0	0	1	0
0	1	2	1
0	2	1	1
0	0	0	0
0	0	0	0
0	0	0	0
0	0	0	0
0	0	0	0
0	0	0	0
0	0	0	0
0	5	1	1
0	2	1	3
0	4	4	12
0	0	0	0
0	3	2	6
0	0	0	0
0	0	0	0
0	1	0	0
0	2	4	1
0	3	0	1
0	0	3	1
0	0	1	2
0	1	6	8
0	0	0	0
0	0	0	0
0	0	0	0
0	0	0	0
0	1	1	4
0	0	0	0
0	0	0	0
0	1	0	0
0	0	0	0
0	0	0	0
0	2	6	5
0	0	0	0
0	233	100	265
0	1	1	0
0	0	0	3
0	4	5	1
0	2	0	5
0	1	1	7
0	6	10	17
0	23	69	176
0	0	0	0
0	1	0	0
0	0	0	0
0	0	0	0
0	6	12	7
0	0	0	0
0	0	0	0
0	0	0	0
0	3	1	5
0	0	0	0
0	0	0	0
0	0	0	0
0	0	0	0
0	1	0	1
0	4	2	8
0	0	0	8
0	3	1	4
0	1	1	14
0	3	3	11
0	9	9	22
0	0	0	0
0	0	0	0
0	0	0	0
0	13	3	33
0	8	26	24
0	0	0	0
0	3	2	12
0	1	0	3
0	11	3	26
0	2	2	6
0	2	5	6
0	0	0	0
0	5	7	33
0	0	0	0
0	0	1	1
0	13	0	11
0	35	1	12
0	3	1	10
0	7	2	23
0	135	138	379
0	13	39	51
0	0	0	2
0	0	0	0
0	0	0	3
0	479	110	729
0	6	2	20
0	0	0	0
0	2	0	1
0	0	0	6
0	3	0	7
0	6	5	47
0	6	4	20
0	1	1	8
0	0	0	0
0	0	0	2
0	0	0	0
0	6	2	9
0	115	29	425
0	0	0	1
0	0	0	0
0	0	0	2
0	0	1	4
0	1	0	0
0	7	3	16
0	2	4	19
0	4	1	11
0	5	46	60
0	0	0	1
0	0	0	0
0	1	0	0
0	3	2	12
0	12	9	140
0	0	0	14
0	5	7	55
0	6	1	12
0	2	1	19
0	14	11	8
0	5	2	6
0	37	35	155
0	1	2	1
0	3	0	32
0	3	0	0
0	7	1	108
0	16	1	75
0	4	1	22
0	10	3	148
0	11	3	69
0	4	2	139
0	0	0	1
0	1	0	37
0	5	1	9
0	0	0	0
0	0	0	0
0	2	0	2
0	21	7	152
0	1	0	1
0	2	3	9
0	2	0	20
0	13	8	124
0	0	0	0
0	0	0	0
0	0	0	0
0	0	0	0
0	0	0	0
0	7	0	7
0	149	10	435
0	7	0	24
0	16	0	32
0	0	0	0
0	0	0	0
0	0	0	21
0	16	15	2572
0	4	3	328
0	2	0	9
0	43	9	640
0	38	7	2230
0	21	5	211
0	5	2	20
0	0	0	6
0	0	0	1
0	0	0	1
0	0	1	0
0	0	0	0
0	0	0	0
1	0	4	10
0	0	0	0
0	0	0	0
362	0	0	320
0	0	0	0
0	0	0	0
0	0	0	0
0	0	0	0
27	0	10	38
0	0	0	0
0	0	0	3
0	0	0	0
3	0	47	14
0	0	0	0
0	0	0	0
5	0	2	1
0	0	0	0
0	0	0	0
0	0	1	6
1	0	0	0
2	0	6	23
1	0	0	13
0	0	0	19
0	0	0	0
0	0	0	0
2	0	5	13
0	0	0	0
0	0	0	0
0	0	0	0
0	0	0	0
0	0	1	8
0	0	0	0
0	0	0	0
0	0	0	0
2	0	14	22
0	0	8	11
6	0	3	7
0	0	0	0
0	0	0	0
1	0	1	15
0	0	0	1
0	0	0	3
2	0	0	1
9	0	5	13
0	0	0	0
0	0	0	0
0	0	0	0
2	0	1	8
0	0	0	0
5	0	4	28
0	0	0	0
0	0	0	0
0	0	0	0
6	0	2	9
2	0	1	6
2	0	0	6
2	0	0	8
2	0	1	3
3	0	1	3
2	0	1	25
0	0	0	4
0	0	0	4
0	0	0	0
0	0	0	0
1	0	1	6
2	0	0	10
0	0	0	0
0	0	0	0
0	0	0	4
1	0	0	27
0	0	0	0
0	0	0	0
0	0	0	6
11	0	3	23
2	0	3	12
0	0	0	0
0	0	0	0
0	0	0	0
0	0	0	0
0	0	0	0
2	0	0	0
0	0	0	10
0	0	0	0
0	0	0	0
15	0	7	20
0	0	0	0
4	0	2	10
8	0	1	10
0	0	0	0
1	0	0	5
2	0	1	12
0	0	0	1
0	0	0	2
1	0	0	3
0	0	0	0
0	0	0	0
2	0	2	9
0	0	0	0
1	0	2	4
0	0	0	0
0	0	0	6
0	0	0	0
1	0	0	0
0	0	0	0
0	0	0	0
0	0	0	0
1	0	2	8
2	0	0	7
5	0	2	5
0	0	0	0
0	0	0	0
0	0	0	0
0	0	0	4
0	0	0	1
9	0	7	56
3	0	3	19
0	0	0	0
0	0	0	0
20	0	1	5
1	0	0	0
0	0	1	3
7	0	3	17
0	0	0	0
0	0	0	0
0	0	0	0
2	0	1	1
4	0	10	19
1	0	7	6
0	0	0	0
0	0	0	4
0	0	0	0
0	0	0	17
4	0	1	14
0	0	1	14
2	0	0	4
0	0	2	0
0	0	0	0
10	0	16	32
0	0	0	2
4	0	1	29
0	0	0	4
1	0	0	2
0	0	0	2
0	0	0	3
1	0	3	5
0	0	0	0
0	0	0	4
273	0	440	21
0	0	0	0
3	0	4	15
0	0	0	0
0	0	1	0
1	0	1	19
1	0	1	14
1	0	11	29
0	0	1	3
1	0	0	2
2	0	6	23
3	0	0	3
0	0	0	0
4	0	14	29
3	0	0	9
33	0	9	58
1	0	0	8
0	0	0	3
6	0	10	11
0	0	3	1
5	0	4	19
0	0	0	0
0	0	0	0
47	0	13	55
1	0	0	2
6	0	10	25
1	0	0	14
1	0	0	11
0	0	0	2
0	0	0	3
0	0	0	0
0	0	1	4
0	0	0	3
3	0	44	43
0	0	6	28
0	0	0	0
0	0	0	0
0	0	0	0
0	0	0	2
0	0	0	3
0	0	1	2
3	0	25	36
0	0	0	3
0	0	0	0
2	0	4	7
6	0	9	29
11	0	55	76
0	0	1	11
3	0	3	14
0	0	0	1
0	0	0	0
0	0	0	0
0	0	0	3
6	0	2	9
0	0	0	10
8	0	31	36
0	0	0	0
2	0	4	5
4	0	34	22
8	0	3	29
4	0	8	36
4	0	0	1
0	0	0	0
0	0	0	14
0	0	1	8
0	0	0	2
5	0	3	17
0	0	0	0
0	0	0	0
0	0	0	0
0	0	0	2
0	0	0	10
9	0	23	268
0	0	0	4
0	0	0	0
0	0	0	0
2	0	2	14
1	0	0	6
0	0	0	0
1	0	0	5
1	0	1	8
18	0	5	51
61	0	10	28
9	0	3	38
1	0	0	1
0	0	0	0
0	0	0	0
0	0	0	0
0	0	0	0
0	0	0	0
0	0	0	1
0	0	4	10
81	0	113	213
0	0	0	2
0	0	0	3
23	0	5	98
68	0	21	101
6	0	4	25
78	0	48	41
0	0	1	0
15	18	0	8
1	0	0	0
0	0	0	0
0	0	0	0
0	0	0	0
0	0	0	0
0	0	0	1
1169	7	0	833
3	40	0	5
4	16	0	3
1	7	0	4
0	0	0	0
0	0	0	0
0	0	0	0
0	0	0	0
0	0	0	0
0	0	0	0
0	0	0	0
0	0	0	0
0	0	0	0
0	0	0	0
1	2	0	1
6	2	0	3
0	0	0	0
0	0	0	0
0	0	0	0
15	8	0	7
1	0	0	0
1	2	0	0
0	0	0	0
0	0	0	0
0	0	0	0
0	0	0	0
2	0	0	0
2	1	0	6
27	2	0	0
0	0	0	0
0	0	0	0
0	0	0	1
0	0	0	0
0	0	0	0
14	33	0	5
0	3	0	1
14	33	0	6
3	2	0	2
0	0	0	0
0	1	0	0
8	1	0	12
0	0	0	0
9	8	0	7
0	0	0	0
18	6	0	1
0	0	0	0
0	0	0	0
1	0	0	0
7	3	0	5
3	2	0	2
3	2	0	0
5	1	0	4
0	0	0	1
3	5	0	4
8	7	0	1
2	2	0	5
0	0	0	0
0	0	0	0
0	1	0	0
10	8	0	1
1	3	0	3
0	3	0	0
2	6	0	5
31	5	0	3
0	1	0	3
0	0	0	0
28	2	0	2
0	1	0	0
0	0	0	0
0	0	0	0
0	0	0	0
0	0	0	0
42	12	0	1
0	0	0	0
0	0	0	0
0	0	0	0
0	0	0	0
0	1	0	0
15	2	0	1
15	1	0	4
0	0	0	0
5	4	0	2
0	1	0	0
0	0	0	0
0	0	0	0
0	0	0	0
0	0	0	0
1	0	0	0
3	0	0	0
4	0	0	0
10	2	0	2
3	1	0	0
0	0	0	0
0	0	0	0
0	0	0	0
0	0	0	0
0	0	0	0
1	0	0	0
0	0	0	0
21	3	0	2
1	0	0	3
0	0	0	0
0	0	0	0
0	0	0	0
0	0	0	0
0	0	0	0
1	0	0	0
0	0	0	0
1	0	0	1
22	2	0	1
0	0	0	0
0	0	0	0
0	0	0	0
0	0	0	0
0	0	0	0
1	0	0	1
2	0	0	1
7	15	0	8
6	3	0	2
4	3	0	4
0	0	0	0
19	1	0	14
0	0	0	0
0	0	0	0
0	0	0	0
0	0	0	0
19	19	0	4
2	1	0	3
0	0	0	0
4	6	0	3
2	0	0	1
0	1	0	0
0	0	0	0
0	20	0	2
0	0	0	0
0	0	0	0
3	4	0	1
0	0	0	0
1	2	0	1
20	5	0	4
4	45	0	17
0	1	0	1
1	0	0	1
0	0	0	0
0	0	0	0
1	3	0	1
0	0	0	0
28	167	0	80
0	2	0	1
0	3	0	0
10	46	0	14
11	6	0	10
7	8	0	5
0	5	0	2
0	0	0	0
9	10	0	4
0	0	0	0
0	0	0	0
0	1	0	0
2	5	0	3
1	4	0	16
70	57	0	53
5	23	0	13
2	10	0	0
19	14	0	3
1	0	0	1
3	13	0	85
5	7	0	7
0	1	0	0
0	1	0	0
0	2	0	8
0	1	0	2
0	2	0	3
2	4	0	7
4	12	0	14
4	11	0	5
0	0	0	0
1	2	0	0
9	31	0	14
4	25	0	7
12	71	0	19
0	0	0	0
1	3	0	9
16	1	0	14
8	18	0	8
4	35	0	48
3	20	0	17
6	13	0	6
0	0	0	0
0	0	0	0
0	0	0	0
0	0	0	0
0	0	0	0
0	0	0	0
0	0	0	5
2	2	0	4
2	7	0	7
1	0	0	4
4	42	0	6
6	23	0	21
1	32	0	24
0	0	0	0
0	6	0	8
0	0	0	0
3	3	0	7
2	1	0	7
1	2	0	4
4	7	0	17
7	14	0	18
8	6	0	32
0	0	0	0
0	0	0	1
26	30	0	82
1	0	0	6
0	0	0	0
0	0	0	0
6	28	0	57
0	1	0	0
36	74	0	67
0	15	0	20
9	12	0	24
1	0	0	0
14	11	0	35
1	0	0	0
0	0	0	0
0	0	0	0
0	0	0	0
0	1	0	0
1	4	0	7
22	90	0	142
0	0	0	2
0	0	0	0
0	0	0	0
0	0	0	3
19	32	0	396
0	0	0	0
3	7	0	48
0	0	0	1
0	4	0	6
0	0	0	0
11	4	0	9
7	0	0	2
376	415	0	164
0	1	2	0
0	0	0	0
5	13	2	0
0	0	0	0
0	2	0	0
18	23	3	0
10025	11457	16	0
2124	4	1868	0
1	0	0	0
0	0	0	0
0	0	0	0
0	0	0	0
2	0	0	0
0	0	0	0
1	5	1	0
0	0	0	0
0	0	0	0
0	0	0	0
0	0	0	0
6	2	2	0
12	7	1	0
0	2	0	0
0	0	0	0
0	0	0	0
0	0	0	0
0	14	0	0
0	0	0	0
4	11	2	0
0	0	0	0
3	12	1	0
3	8	0	0
7	4	1	0
6	6	5	0
0	0	0	0
3	16	0	0
0	0	0	0
11	4	1	0
0	0	3	0
0	0	0	0
0	0	0	0
3	12	2	0
0	0	0	0
1	19	0	0
0	8	0	0
9	39	3	0
15	34	3	0
0	0	0	0
7	5	1	0
0	0	0	0
0	0	0	0
10	14	2	0
0	0	0	0
0	0	0	0
7	27	1	0
0	0	0	0
0	0	0	0
0	1	0	0
5	4	1	0
2	4	0	0
6	13	0	0
0	3	0	0
0	0	0	0
1	5	0	0
3	21	1	0
2	32	3	0
0	0	0	0
0	0	0	0
1	2	0	0
0	2	0	0
0	0	0	0
0	0	1	0
5	70	11	0
4	26	0	0
0	0	0	0
4	19	0	0
5	19	1	0
0	0	0	0
0	0	0	0
5	9	0	0
0	2	0	0
3	26	0	0
7	10	0	0
0	0	0	0
1	15	0	0
7	13	0	0
0	0	0	0
0	0	0	0
0	2	0	0
0	0	0	0
0	0	0	0
0	0	0	0
6	2	0	0
11	10	1	0
0	0	0	0
3	4	0	0
7	8	0	0
1	6	0	0
2	0	0	0
1	0	0	0
0	0	0	0
1	2	0	0
0	0	0	0
1	3	0	0
0	0	0	0
0	1	0	0
1	22	0	0
0	0	0	0
2	5	0	0
0	0	0	0
0	0	0	0
0	0	0	0
0	3	0	0
8	3	0	0
0	0	0	0
3	15	1	0
6	11	0	0
1	0	0	0
184	166	117	0
0	0	0	0
0	0	0	0
1	10	1	0
84	30	9	0
860	1006	1356	0
3	6	5	0
0	4	0	0
0	1	0	0
0	0	0	0
0	0	0	0
0	0	0	0
0	0	0	0
0	0	0	0
4	10	1	0
3	26	2	0
3	0	1	0
2	13	1	0
3	28	0	0
2	15	0	0
3	18	0	0
781	526	1048	0
5	20	2	0
4	12	0	0
4	6	1	0
0	1	0	0
1	8	0	0
8	10	1	0
2	8	1	0
0	1	0	0
1	10	7	0
2	5	0	0
2	4	0	0
36	43	28	0
3	9	0	0
0	0	0	0
0	0	0	0
0	0	0	0
3	13	0	0
3	14	2	0
6	9	5	0
0	4	0	0
1	11	2	0
3	20	4	0
0	0	0	0
0	0	0	0
0	0	0	0
0	4	0	0
2	85	0	0
3	15	0	0
3	1	0	0
40	17	21	0
3	2	4	0
0	7	0	0
0	2	0	0
9	44	2	0
108	128	23	0
1	1	0	0
2	4	4	0
3	11	1	0
10	19	1	0
10	20	3	0
6	6	0	0
2	13	0	0
0	3	0	0
0	1	0	0
0	0	0	0
0	0	0	0
0	0	0	0
0	0	0	0
2	2	2	0
10	37	5	0
10	20	3	0
12	13	3	0
2	16	0	0
2	8	0	0
1	0	0	0
0	0	1	0
9	1	3	0
0	0	0	0
0	0	0	0
1	4	0	0
15	25	2	0
1	1	0	0
14	15	2	0
6	8	2	0
14	32	2	0
11	28	1	0
10	34	15	0
6	11	4	0
0	0	2	0
104	71	162	0
0	3	0	0
7	11	0	0
3	319	0	0
15	10	1	0
11	16	0	0
3	8	1	0
2	2	0	0
3	2	0	0
38	24	7	0
30	23	4	0
0	0	0	0
41	21	10	0
12	14	3	0
0	0	0	0
0	1	0	0
48	45	9	0
4	4	0	0
21	27	4	0
2	0	0	0
59	28	7	0
15	12	9	0
27	14	14	0
0	0	0	0
0	0	0	0
0	0	0	0
3	1	0	0
74	57	10	0
4	2	1	0
31	19	7	0
118	27	15	0
10	9	1	0
0	0	0	0
0	0	0	0
0	0	0	0
1	0	0	0
0	0	0	0
4	2	0	0
16	7	2	0
174	29	11	0
608	63	21	0
7	2	1	0
