AAA	24	6	10	9	
AAC	10	8	5	5	
AAG	14	4	6	2	
AAT	3	4	3	5	
ACA	10	12	2	4	
ACC	6	13	5	4	
ACG	3	10	6	2	
ACT	2	6	2	4	
AGA	9	3	8	7	
AGC	3	6	14	7	
AGG	7	7	16	4	
AGT	3	0	2	1	
ATA	6	3	1	4	
ATC	2	4	3	2	
ATG	4	1	4	1	
ATT	4	2	4	4	
CAA	4	15	9	2	
CAC	7	11	2	6	
CAG	4	16	5	2	
CAT	4	3	5	7	
CCA	3	18	11	4	
CCC	3	38	8	7	
CCG	5	13	11	3	
CCT	5	10	3	1	
CGA	10	7	10	2	
CGC	5	8	15	11	
CGG	5	19	33	3	
CGT	3	5	4	4	
CTA	1	5	1	2	
CTC	5	13	1	7	
CTG	5	5	6	6	
CTT	3	6	5	3	
GAA	13	11	8	7	
GAC	4	5	5	1	
GAG	7	2	6	4	
GAT	6	3	9	5	
GCA	3	9	16	0	
GCC	10	20	17	4	
GCG	6	18	27	4	
GCT	2	11	13	5	
GGA	4	4	8	4	
GGC	4	11	41	3	
GGG	6	8	57	9	
GGT	2	4	16	4	
GTA	2	4	7	1	
GTC	3	3	9	2	
GTG	4	4	12	6	
GTT	2	3	9	12	
TAA	8	3	2	2	
TAC	4	1	3	2	
TAG	1	1	1	0	
TAT	2	2	3	4	
TCA	4	6	6	6	
TCC	6	6	2	4	
TCG	3	9	7	1	
TCT	0	8	5	3	
TGA	6	7	2	5	
TGC	3	6	8	8	
TGG	4	10	15	2	
TGT	2	4	8	9	
TTA	0	1	4	8	
TTC	7	8	5	6	
TTG	7	6	6	8	
TTT	3	11	5	40	
