AAA	207	42	49	55	
AAC	22	21	9	15	
AAG	23	15	17	18	
AAT	48	24	14	35	
ACA	9	12	12	15	
ACC	25	23	33	23	
ACG	12	15	24	9	
ACT	13	10	19	9	
AGA	14	12	22	16	
AGC	29	10	18	19	
AGG	35	20	39	20	
AGT	27	14	10	11	
ATA	57	18	14	42	
ATC	19	17	12	30	
ATG	21	15	33	24	
ATT	42	37	18	35	
CAA	26	9	18	23	
CAC	20	20	20	15	
CAG	18	15	14	10	
CAT	22	17	20	15	
CCA	17	17	24	31	
CCC	25	71	45	27	
CCG	30	35	23	40	
CCT	27	22	39	19	
CGA	14	8	12	25	
CGC	21	32	31	20	
CGG	23	31	23	34	
CGT	21	18	36	29	
CTA	21	7	3	11	
CTC	19	23	23	31	
CTG	26	23	39	22	
CTT	26	41	24	42	
GAA	36	12	14	18	
GAC	10	13	11	4	
GAG	28	20	23	17	
GAT	41	12	20	13	
GCA	39	49	90	24	
GCC	33	55	50	43	
GCG	26	23	21	18	
GCT	14	25	30	25	
GGA	24	7	13	13	
GGC	24	14	31	13	
GGG	66	36	74	65	
GGT	34	22	34	18	
GTA	30	10	8	16	
GTC	18	24	22	32	
GTG	12	13	25	19	
GTT	31	43	29	34	
TAA	73	18	12	35	
TAC	12	10	8	19	
TAG	21	4	15	13	
TAT	40	18	24	26	
TCA	24	28	23	31	
TCC	27	46	45	40	
TCG	15	20	7	11	
TCT	29	28	31	19	
TGA	16	13	12	26	
TGC	21	42	30	20	
TGG	37	32	37	49	
TGT	15	16	22	18	
TTA	27	20	24	37	
TTC	26	41	12	36	
TTG	35	61	66	55	
TTT	70	80	36	150	
