AAA	148	19	36	40	
AAC	9	10	5	16	
AAG	40	11	12	34	
AAT	79	30	23	57	
ACA	7	9	6	8	
ACC	21	14	14	12	
ACG	11	9	15	6	
ACT	20	16	15	15	
AGA	17	3	22	14	
AGC	5	9	11	10	
AGG	16	11	15	23	
AGT	15	10	8	6	
ATA	33	6	6	28	
ATC	13	11	2	18	
ATG	12	14	22	12	
ATT	54	46	42	57	
CAA	23	16	25	25	
CAC	14	12	14	14	
CAG	9	8	13	7	
CAT	32	13	17	11	
CCA	7	10	10	19	
CCC	19	43	20	16	
CCG	11	15	10	11	
CCT	20	18	24	16	
CGA	8	7	8	11	
CGC	17	13	16	13	
CGG	16	12	16	25	
CGT	8	9	7	9	
CTA	23	7	1	19	
CTC	10	15	9	24	
CTG	14	18	20	14	
CTT	24	32	13	46	
GAA	33	15	17	17	
GAC	6	8	11	11	
GAG	19	9	7	10	
GAT	19	11	18	5	
GCA	16	19	24	18	
GCC	14	27	34	20	
GCG	13	17	18	10	
GCT	19	9	18	14	
GGA	16	19	18	18	
GGC	17	8	22	15	
GGG	29	11	37	38	
GGT	13	7	24	13	
GTA	19	5	5	12	
GTC	5	18	15	24	
GTG	7	7	13	13	
GTT	21	22	27	20	
TAA	47	7	10	17	
TAC	4	8	8	12	
TAG	14	2	7	13	
TAT	37	10	9	23	
TCA	15	7	6	13	
TCC	8	21	13	17	
TCG	7	6	7	6	
TCT	26	23	14	22	
TGA	11	9	19	12	
TGC	21	18	13	22	
TGG	31	20	19	26	
TGT	24	10	14	14	
TTA	32	18	12	53	
TTC	15	25	21	40	
TTG	29	37	32	39	
TTT	74	63	49	148	
