AAA	113	24	28	31	
AAC	17	18	14	11	
AAG	18	22	19	17	
AAT	32	12	10	26	
ACA	18	10	15	15	
ACC	14	37	11	16	
ACG	14	26	6	7	
ACT	9	8	8	8	
AGA	12	6	53	7	
AGC	12	12	32	10	
AGG	24	19	53	15	
AGT	4	12	12	13	
ATA	13	14	14	28	
ATC	7	11	14	17	
ATG	16	8	10	10	
ATT	19	15	7	25	
CAA	28	24	21	10	
CAC	16	27	24	30	
CAG	8	45	37	16	
CAT	11	12	8	18	
CCA	11	32	27	15	
CCC	9	108	30	36	
CCG	11	58	27	51	
CCT	13	19	10	15	
CGA	17	16	30	11	
CGC	13	39	56	18	
CGG	8	50	80	28	
CGT	3	14	24	18	
CTA	3	10	2	15	
CTC	7	30	7	16	
CTG	11	32	15	32	
CTT	20	39	12	45	
GAA	29	9	46	25	
GAC	9	21	15	0	
GAG	29	14	26	9	
GAT	8	9	16	15	
GCA	11	27	89	12	
GCC	21	85	24	12	
GCG	13	54	44	16	
GCT	6	31	46	43	
GGA	15	7	29	10	
GGC	19	39	115	24	
GGG	31	28	179	18	
GGT	12	5	22	12	
GTA	8	3	50	10	
GTC	28	12	18	6	
GTG	11	17	31	18	
GTT	3	2	15	22	
TAA	13	8	8	17	
TAC	1	6	5	11	
TAG	4	14	23	7	
TAT	13	8	4	24	
TCA	6	27	24	17	
TCC	11	25	14	15	
TCG	7	14	15	12	
TCT	8	11	9	13	
TGA	30	8	13	5	
TGC	11	9	25	18	
TGG	12	12	38	13	
TGT	9	21	7	9	
TTA	11	4	9	23	
TTC	11	17	10	24	
TTG	7	5	18	13	
TTT	19	32	28	133	
