6359	28795	5282	31703
21765	31386	13137	28592
19079	31509	16405	15087
23840	69056	16500	78605
31314	67947	33254	34401
37222	70874	93087	46794
20672	125709	30713	9699
50010	49163	47738	49456
10643	34637	11676	19002
20469	73078	42759	22104
17552	19448	40902	23717
52864	34903	28583	71468
18705	14170	5224	34094
22432	78178	23304	105412
5807	20081	6212	11579
6427	93855	2423	64786
18622	26644	43821	44806
48508	131627	63435	56741
40118	43032	64564	135643
12392	37615	14743	47752
33980	113727	133139	22436
116912	89533	64291	81948
27605	120536	121331	28696
44443	107395	102366	82018
27767	16383	21431	14082
73607	169098	24991	110343
71872	28959	50161	49384
13066	53618	36730	12781
54634	176543	40702	7773
48104	99674	28321	81170
34922	57862	43574	47305
39078	76985	16903	126344
19133	15743	10272	46332
10319	22089	9581	84905
12369	63167	5587	17179
31203	16477	6274	27468
27262	30069	43004	48167
57839	89049	55242	117141
3809	42509	11726	41733
42034	53133	17118	94725
41223	59155	12150	23086
17786	32906	7356	30008
20453	25177	37483	59655
60083	16351	27329	49305
24583	18727	8916	80854
50876	45198	16199	20731
19362	30245	15144	33652
24911	71308	38589	60337
28019	23664	22705	65201
88064	62215	100632	31309
6825	20702	15061	19886
5441	105572	6157	13685
41364	86774	73963	8114
91922	103183	85577	87788
27570	86872	36814	36174
138042	47659	16718	33182
11884	16512	50600	25259
36631	45317	25898	44625
25725	14228	14228	19990
7058	28162	5764	61561
41665	72721	7630	7447
88808	148107	119527	28278
44163	43942	9624	10031
59041	142556	49868	14802
