AAA	3315	6494	4677	4388	
AAC	4292	3272	6090	4425	
AAG	4732	6476	2717	10373	
AAT	1424	3891	2693	1726	
ACA	3024	2704	3176	3386	
ACC	8630	2949	10404	6471	
ACG	13977	7743	5359	18189	
ACT	1259	1775	3074	2114	
AGA	3622	3405	1273	5497	
AGC	9081	4653	7517	6682	
AGG	8900	8771	2058	24378	
AGT	1191	2337	1278	2512	
ATA	1391	2389	1943	1650	
ATC	7484	3474	9058	5035	
ATG	5964	6777	3034	7429	
ATT	1413	5920	4938	1979	
CAA	3889	6242	4822	5199	
CAC	4845	4904	10342	4685	
CAG	8075	8389	4515	12200	
CAT	2067	5060	5030	2857	
CCA	4198	3954	6480	5931	
CCC	13174	3240	16148	8900	
CCG	30349	12291	10179	31729	
CCT	2133	3048	6400	3774	
CGA	13734	9281	6918	16362	
CGC	28758	12848	24162	33507	
CGG	29335	28703	7502	55825	
CGT	4367	7260	6413	6561	
CTA	873	1861	805	1733	
CTC	6760	2677	11188	2969	
CTG	11960	8376	5145	9696	
CTT	1925	7377	6420	2533	
GAA	5709	8795	6502	6368	
GAC	7030	5442	9094	5139	
GAG	6759	9282	2723	10389	
GAT	2818	7615	5060	3171	
GCA	9034	5533	6907	8396	
GCC	21544	7088	26184	15197	
GCG	41495	21714	10778	49256	
GCT	3382	4995	8021	5581	
GGA	6518	5787	2527	9741	
GGC	24204	8640	15860	21935	
GGG	23178	24209	3609	39675	
GGT	3161	7448	4428	4275	
GTA	1863	2716	1710	2110	
GTC	8801	3802	10352	4801	
GTG	11316	9957	3596	9856	
GTT	2183	9056	6526	2586	
TAA	1177	1767	1118	957	
TAC	2102	1811	3033	1555	
TAG	1695	2105	793	3033	
TAT	881	2948	1664	1152	
TCA	4308	3251	3965	3466	
TCC	9044	2998	8437	4964	
TCG	27910	9705	7088	20464	
TCT	2027	2595	4729	2715	
TGA	5682	4144	2005	5915	
TGC	9938	6521	8282	10687	
TGG	13380	11394	2837	24444	
TGT	1985	4557	2016	3038	
TTA	944	1878	786	1010	
TTC	8740	4028	10196	3778	
TTG	8240	8822	2328	5818	
TTT	3288	10896	6377	2335	
