AAA	205	664	507	484	
AAC	177	162	250	223	
AAG	182	438	104	774	
AAT	137	251	183	135	
ACA	120	99	201	157	
ACC	587	95	773	535	
ACG	299	162	86	611	
ACT	66	83	182	73	
AGA	117	168	104	280	
AGC	345	125	161	282	
AGG	659	1004	97	3607	
AGT	69	105	68	84	
ATA	116	192	148	105	
ATC	283	127	376	152	
ATG	239	295	78	330	
ATT	152	357	445	117	
CAA	158	345	356	283	
CAC	235	145	441	202	
CAG	220	425	109	626	
CAT	93	209	201	102	
CCA	188	149	329	246	
CCC	1355	84	1588	1084	
CCG	1164	278	154	1438	
CCT	137	114	399	96	
CGA	161	204	118	316	
CGC	1086	181	371	842	
CGG	1842	1792	103	4968	
CGT	146	145	105	102	
CTA	50	89	51	65	
CTC	493	92	876	140	
CTG	459	300	111	327	
CTT	188	341	891	103	
GAA	136	450	265	287	
GAC	210	104	248	150	
GAG	434	503	61	2057	
GAT	109	288	205	91	
GCA	176	140	186	217	
GCC	1850	123	1073	1096	
GCG	1602	487	118	2339	
GCT	112	133	268	96	
GGA	157	234	117	400	
GGC	943	176	271	584	
GGG	3105	2901	120	7466	
GGT	159	279	139	116	
GTA	75	121	84	73	
GTC	355	73	225	80	
GTG	477	454	77	440	
GTT	149	416	302	96	
TAA	113	187	151	112	
TAC	127	102	163	89	
TAG	76	156	36	180	
TAT	88	213	170	101	
TCA	150	116	179	119	
TCC	802	84	540	316	
TCG	772	198	113	581	
TCT	155	119	303	88	
TGA	150	193	85	163	
TGC	459	148	192	255	
TGG	1082	1225	93	2520	
TGT	140	186	90	105	
TTA	77	139	67	92	
TTC	436	167	337	155	
TTG	443	399	116	256	
TTT	497	973	801	148	
