697646
653023
864093
577895
1237530
1312417
1040254
1209569
522007
870220
765825
801711
667171
639804
905543
916181
913485
909295
892674
885739
870603
861825
870572
870806
860580
873648
874281
869276
880292
875913
865747
876616
874565
861145
872527
873924
863228
875086
873819
865704
874355
874765
861230
872823
871886
862619
874571
873431
863676
874092
871996
864690
873502
872016
862706
871682
873009
862207
873354
872921
863436
872227
871614
861834
873391
872791
862384
871722
870561
861532
871573
871559
862539
873059
870002
860494
870991
872111
860739
869668
869833
862049
871187
870604
862418
870309
870416
860459
869030
868923
859473
870423
866581
858179
868441
867069
858929
866251
868173
859769
396589
1279799
999364
1325805
1224988
628466
844613
709667
733420
1079853
799783
1040499
876540
868466
730439
805154
885296
877401
863416
867455
870654
865375
873403
868981
867616
871109
862438
857447
863747
861045
860378
865571
864651
864552
869530
864213
863211
867590
862774
859235
866286
861403
863004
868759
864866
863676
869315
863882
862042
868730
864036
861618
867838
862373
861941
866489
863479
862858
867261
863416
861889
868796
861916
859782
865497
860810
860562
866309
862944
861403
868025
863516
860922
866572
861142
860252
865219
861818
861764
867893
863901
862378
867596
862580
861434
865815
859365
860526
864924
862500
862671
866176
864092
861702
867174
860197
860851
866526
860167
859540
1535979
645551
692568
487836
531059
1081369
920082
875555
844924
625991
1313710
783726
1068457
789869
947861
915915
847828
867148
895024
886145
885586
894802
886355
889000
897994
888133
891711
898461
889151
889485
895722
888216
889892
896999
886330
890827
899254
889356
891262
900437
888701
891804
900556
888284
890761
897866
887432
892109
898404
887368
891271
896942
886607
891202
898707
889873
889650
899032
888612
892465
898337
886979
890637
897453
889185
891312
898833
889727
892930
899952
890255
892479
899433
889556
893158
901296
891075
892709
901159
888780
892330
899690
890200
893416
900741
892110
895326
900263
893432
893907
901829
892838
894926
899775
891945
896614
903410
894131
897123
902258
887881
940612
963046
1127679
525697
496956
713307
724280
1418852
942980
639764
893098
906893
1220954
935282
881846
872471
865062
867412
879677
892371
897209
888721
890443
893099
886187
890833
894061
886006
892720
897381
888702
890019
895254
889009
888542
892285
886198
890618
893237
889664
891378
894505
889320
891757
895171
888048
889929
895237
889123
892059
896053
891401
893728
895784
891100
892967
895073
890020
890434
895035
890508
894506
899395
890080
893386
896812
891075
892822
896413
889500
891776
896448
890090
895060
897283
891947
892689
895652
892987
893221
895035
890089
892564
894640
891057
893966
897814
891555
893422
894979
889581
891099
896471
888486
892516
893535
889946
891341
895241
