200	100	50	0
200	100	50	0
200	100	50	0
200	100	50	0
200	100	50	0
200	100	50	0
200	100	50	0
200	100	50	0
200	100	50	0
200	100	50	0
200	100	50	0
200	100	50	0
200	100	50	0
200	100	50	0
200	100	50	0
200	100	50	0
200	100	50	0
200	100	50	0
200	100	50	0
200	100	50	0
200	100	50	0
200	100	50	0
200	100	50	0
200	100	50	0
200	100	50	0
200	100	50	0
200	100	50	0
200	100	50	0
200	100	50	0
200	100	50	0
200	100	50	0
200	100	50	0
200	100	50	0
200	100	50	0
200	100	50	0
200	100	50	0
200	100	50	0
200	100	50	0
200	100	50	0
200	100	50	0
200	100	50	0
200	100	50	0
200	100	50	0
200	100	50	0
200	100	50	0
200	100	50	0
200	100	50	0
200	100	50	0
200	100	50	0
200	100	50	0
200	100	50	0
200	100	50	0
200	100	50	0
200	100	50	0
200	100	50	0
200	100	50	0
200	100	50	0
200	100	50	0
200	100	50	0
200	100	50	0
200	100	50	0
200	100	50	0
200	100	50	0
200	100	50	0
200	100	50	0
200	100	50	0
200	100	50	0
200	100	50	0
200	100	50	0
200	100	50	0
200	100	50	0
200	100	50	0
200	100	50	0
200	100	50	0
200	100	50	0
200	100	50	0
200	100	50	0
200	100	50	0
200	100	50	0
200	100	50	0
200	100	50	0
200	100	50	0
200	100	50	0
200	100	50	0
200	100	50	0
200	100	50	0
200	100	50	0
200	100	50	0
200	100	50	0
200	100	50	0
200	100	50	0
200	100	50	0
200	100	50	0
200	100	50	0
200	100	50	0
200	100	50	0
200	100	50	0
200	100	50	0
200	100	50	0
200	100	50	0
